0000.000 (0) Opened log file at time: Mon, 11 Feb 2019 14:55:46 +0000 on https://www.habit.ph
0000.002 (0) UpdraftPlus WordPress backup plugin (https://updraftplus.com): 1.16.5 WP: 5.0.3 PHP: 7.2.11 (cgi-fcgi, Linux ps590440 3.14.52-vs2.3.6.15-1 #1 SMP Wed Nov 2 10:45:38 UTC 2016 x86_64) MySQL: 5.6.34-log WPLANG: en_US Server: Apache safe_mode: 0 max_execution_time: 900 memory_limit: 300M (used: 30.7M | 36M) multisite: N openssl: OpenSSL 1.0.1f 6 Jan 2014 mcrypt: N LANG:  ZipArchive::addFile: Y
0000.003 (0) Free space on disk containing Updraft's temporary directory: 17866.5 MB
0000.005 (0) Deleting old log file: log.60e52b9a8a94.txt
0000.008 (0) Tasks: Backup files: 1 (schedule: unset) Backup DB: 1 (schedule: unset)
0000.019 (0) Requesting semaphore lock (fd) (apparently not via scheduler)
0000.025 (0) Set semaphore last lock (fd) time to 2019-02-11 14:55:46
0000.026 (0) Semaphore lock (fd) complete
0000.040 (0) Backup run: resumption=0, nonce=aa19e35c7be7, file_nonce=aa19e35c7be7 begun at=1549896946 (0s ago), job type=backup
0000.042 (0) Scheduling a resumption (1) after 300 seconds (1549897246) in case this run gets aborted
0000.219 (0) Checking if we have a zip executable available
0000.220 (0) Testing: /usr/bin/zip
0000.229 (0) Output: zip warning: binziptest/test.zip not found or empty
0000.231 (0) Output: adding: binziptest/subdir1/	(in=0) (out=0) (stored 0%)
0000.233 (0) Output: adding: binziptest/subdir1/subdir2/	(in=0) (out=0) (stored 0%)
0000.236 (0) Output: adding: binziptest/subdir1/subdir2/test.html	(in=131) (out=107) (deflated 18%)
0000.237 (0) Output: total bytes=131, compressed=107 -> 18% savings
0000.247 (0) Output: adding: binziptest/subdir1/subdir2/test2.html	(in=138) (out=113) (deflated 18%)
0000.252 (0) Output: total bytes=269, compressed=220 -> 18% savings
0000.271 (0) Working binary zip found: /usr/bin/zip
0000.274 (0) Zip engine: found/will use a binary zip: /usr/bin/zip
0000.275 (0) Creation of backups of directories: beginning
0000.279 (0) Beginning creation of dump of plugins (split every: 400 MB)
0000.490 (0) Total entities for the zip file: 2169 directories, 13102 files (0 skipped as non-modified), 162.2 MB
0000.497 (0) Zip: backup_2019-02-11-2255_Habit_aa19e35c7be7-plugins.zip.tmp: 100 files added (on-disk size: 0 KB)
0000.514 (0) Zip: backup_2019-02-11-2255_Habit_aa19e35c7be7-plugins.zip.tmp: 200 files added (on-disk size: 0 KB)
0000.518 (0) Zip: backup_2019-02-11-2255_Habit_aa19e35c7be7-plugins.zip.tmp: 300 files added (on-disk size: 0 KB)
0000.524 (0) Zip: backup_2019-02-11-2255_Habit_aa19e35c7be7-plugins.zip.tmp: 400 files added (on-disk size: 0 KB)
0000.527 (0) Zip: backup_2019-02-11-2255_Habit_aa19e35c7be7-plugins.zip.tmp: 500 files added (on-disk size: 0 KB)
0000.530 (0) Adding batch to zip file (UpdraftPlus_BinZip): over 500 files added on this batch (4.3 MB, 13102 files batched, 501 (501) added so far); re-opening (prior size: 0 KB)
0000.900 (0) backup_2019-02-11-2255_Habit_aa19e35c7be7-plugins.zip.tmp: size is now: 1.80 MB
0000.905 (0) Zip: backup_2019-02-11-2255_Habit_aa19e35c7be7-plugins.zip.tmp: 600 files added (on-disk size: 1866.2 KB)
0000.908 (0) Zip: backup_2019-02-11-2255_Habit_aa19e35c7be7-plugins.zip.tmp: 700 files added (on-disk size: 1866.2 KB)
0000.911 (0) Zip: backup_2019-02-11-2255_Habit_aa19e35c7be7-plugins.zip.tmp: 800 files added (on-disk size: 1866.2 KB)
0000.913 (0) Zip: backup_2019-02-11-2255_Habit_aa19e35c7be7-plugins.zip.tmp: 900 files added (on-disk size: 1866.2 KB)
0000.919 (0) Zip: backup_2019-02-11-2255_Habit_aa19e35c7be7-plugins.zip.tmp: 1000 files added (on-disk size: 1866.2 KB)
0000.920 (0) Adding batch to zip file (UpdraftPlus_BinZip): over 500 files added on this batch (6.6 MB, 13102 files batched, 501 (1002) added so far); re-opening (prior size: 1866.2 KB)
0001.497 (0) backup_2019-02-11-2255_Habit_aa19e35c7be7-plugins.zip.tmp: size is now: 4.20 MB
0001.507 (0) Zip: backup_2019-02-11-2255_Habit_aa19e35c7be7-plugins.zip.tmp: 1100 files added (on-disk size: 4271.9 KB)
0001.513 (0) Zip: backup_2019-02-11-2255_Habit_aa19e35c7be7-plugins.zip.tmp: 1200 files added (on-disk size: 4271.9 KB)
0001.516 (0) Zip: backup_2019-02-11-2255_Habit_aa19e35c7be7-plugins.zip.tmp: 1300 files added (on-disk size: 4271.9 KB)
0001.520 (0) Zip: backup_2019-02-11-2255_Habit_aa19e35c7be7-plugins.zip.tmp: 1400 files added (on-disk size: 4271.9 KB)
0001.526 (0) Zip: backup_2019-02-11-2255_Habit_aa19e35c7be7-plugins.zip.tmp: 1500 files added (on-disk size: 4271.9 KB)
0001.537 (0) Adding batch to zip file (UpdraftPlus_BinZip): over 500 files added on this batch (3.7 MB, 13102 files batched, 501 (1503) added so far); re-opening (prior size: 4271.9 KB)
0001.907 (0) backup_2019-02-11-2255_Habit_aa19e35c7be7-plugins.zip.tmp: size is now: 5.70 MB
0001.936 (0) Zip: backup_2019-02-11-2255_Habit_aa19e35c7be7-plugins.zip.tmp: 1600 files added (on-disk size: 5869.5 KB)
0001.939 (0) Zip: backup_2019-02-11-2255_Habit_aa19e35c7be7-plugins.zip.tmp: 1700 files added (on-disk size: 5869.5 KB)
0001.942 (0) Zip: backup_2019-02-11-2255_Habit_aa19e35c7be7-plugins.zip.tmp: 1800 files added (on-disk size: 5869.5 KB)
0001.945 (0) Zip: backup_2019-02-11-2255_Habit_aa19e35c7be7-plugins.zip.tmp: 1900 files added (on-disk size: 5869.5 KB)
0001.955 (0) Zip: backup_2019-02-11-2255_Habit_aa19e35c7be7-plugins.zip.tmp: 2000 files added (on-disk size: 5869.5 KB)
0001.957 (0) Adding batch to zip file (UpdraftPlus_BinZip): over 500 files added on this batch (8.9 MB, 13102 files batched, 501 (2004) added so far); re-opening (prior size: 5869.5 KB)
0002.576 (0) backup_2019-02-11-2255_Habit_aa19e35c7be7-plugins.zip.tmp: size is now: 8.10 MB
0002.590 (0) Zip: backup_2019-02-11-2255_Habit_aa19e35c7be7-plugins.zip.tmp: 2100 files added (on-disk size: 8297.6 KB)
0002.593 (0) Zip: backup_2019-02-11-2255_Habit_aa19e35c7be7-plugins.zip.tmp: 2200 files added (on-disk size: 8297.6 KB)
0002.596 (0) Zip: backup_2019-02-11-2255_Habit_aa19e35c7be7-plugins.zip.tmp: 2300 files added (on-disk size: 8297.6 KB)
0002.600 (0) Zip: backup_2019-02-11-2255_Habit_aa19e35c7be7-plugins.zip.tmp: 2400 files added (on-disk size: 8297.6 KB)
0002.602 (0) Zip: backup_2019-02-11-2255_Habit_aa19e35c7be7-plugins.zip.tmp: 2500 files added (on-disk size: 8297.6 KB)
0002.604 (0) Adding batch to zip file (UpdraftPlus_BinZip): over 500 files added on this batch (5.3 MB, 13102 files batched, 501 (2505) added so far); re-opening (prior size: 8297.6 KB)
0002.894 (0) backup_2019-02-11-2255_Habit_aa19e35c7be7-plugins.zip.tmp: size is now: 11.80 MB
0002.961 (0) Zip: backup_2019-02-11-2255_Habit_aa19e35c7be7-plugins.zip.tmp: 2600 files added (on-disk size: 12065.8 KB)
0002.964 (0) Zip: backup_2019-02-11-2255_Habit_aa19e35c7be7-plugins.zip.tmp: 2700 files added (on-disk size: 12065.8 KB)
0002.966 (0) Zip: backup_2019-02-11-2255_Habit_aa19e35c7be7-plugins.zip.tmp: 2800 files added (on-disk size: 12065.8 KB)
0002.969 (0) Zip: backup_2019-02-11-2255_Habit_aa19e35c7be7-plugins.zip.tmp: 2900 files added (on-disk size: 12065.8 KB)
0002.972 (0) Zip: backup_2019-02-11-2255_Habit_aa19e35c7be7-plugins.zip.tmp: 3000 files added (on-disk size: 12065.8 KB)
0002.974 (0) Adding batch to zip file (UpdraftPlus_BinZip): over 500 files added on this batch (5.4 MB, 13102 files batched, 501 (3006) added so far); re-opening (prior size: 12065.8 KB)
0003.488 (0) Zip: backup_2019-02-11-2255_Habit_aa19e35c7be7-plugins.zip.tmp: 3100 files added (on-disk size: 13732 KB)
0003.493 (0) Zip: backup_2019-02-11-2255_Habit_aa19e35c7be7-plugins.zip.tmp: 3200 files added (on-disk size: 13732 KB)
0003.520 (0) Zip: backup_2019-02-11-2255_Habit_aa19e35c7be7-plugins.zip.tmp: 3300 files added (on-disk size: 13732 KB)
0003.546 (0) Zip: backup_2019-02-11-2255_Habit_aa19e35c7be7-plugins.zip.tmp: 3400 files added (on-disk size: 13732 KB)
0003.549 (0) Zip: backup_2019-02-11-2255_Habit_aa19e35c7be7-plugins.zip.tmp: 3500 files added (on-disk size: 13732 KB)
0003.553 (0) Adding batch to zip file (UpdraftPlus_BinZip): over 500 files added on this batch (1.4 MB, 13102 files batched, 501 (3507) added so far); re-opening (prior size: 13732 KB)
0003.894 (0) Zip: backup_2019-02-11-2255_Habit_aa19e35c7be7-plugins.zip.tmp: 3600 files added (on-disk size: 14541.5 KB)
0003.900 (0) Zip: backup_2019-02-11-2255_Habit_aa19e35c7be7-plugins.zip.tmp: 3700 files added (on-disk size: 14541.5 KB)
0003.906 (0) Zip: backup_2019-02-11-2255_Habit_aa19e35c7be7-plugins.zip.tmp: 3800 files added (on-disk size: 14541.5 KB)
0003.929 (0) Zip: backup_2019-02-11-2255_Habit_aa19e35c7be7-plugins.zip.tmp: 3900 files added (on-disk size: 14541.5 KB)
0003.949 (0) Zip: backup_2019-02-11-2255_Habit_aa19e35c7be7-plugins.zip.tmp: 4000 files added (on-disk size: 14541.5 KB)
0003.960 (0) Adding batch to zip file (UpdraftPlus_BinZip): over 500 files added on this batch (3 MB, 13102 files batched, 501 (4008) added so far); re-opening (prior size: 14541.5 KB)
0004.369 (0) Zip: backup_2019-02-11-2255_Habit_aa19e35c7be7-plugins.zip.tmp: 4100 files added (on-disk size: 16045.2 KB)
0004.372 (0) Zip: backup_2019-02-11-2255_Habit_aa19e35c7be7-plugins.zip.tmp: 4200 files added (on-disk size: 16045.2 KB)
0004.374 (0) Zip: backup_2019-02-11-2255_Habit_aa19e35c7be7-plugins.zip.tmp: 4300 files added (on-disk size: 16045.2 KB)
0004.377 (0) Zip: backup_2019-02-11-2255_Habit_aa19e35c7be7-plugins.zip.tmp: 4400 files added (on-disk size: 16045.2 KB)
0004.385 (0) Zip: backup_2019-02-11-2255_Habit_aa19e35c7be7-plugins.zip.tmp: 4500 files added (on-disk size: 16045.2 KB)
0004.391 (0) Adding batch to zip file (UpdraftPlus_BinZip): over 500 files added on this batch (18.1 MB, 13102 files batched, 501 (4509) added so far); re-opening (prior size: 16045.2 KB)
0005.823 (0) backup_2019-02-11-2255_Habit_aa19e35c7be7-plugins.zip.tmp: size is now: 20.70 MB
0005.833 (0) Zip: backup_2019-02-11-2255_Habit_aa19e35c7be7-plugins.zip.tmp: 4600 files added (on-disk size: 21220 KB)
0005.838 (0) Zip: backup_2019-02-11-2255_Habit_aa19e35c7be7-plugins.zip.tmp: 4700 files added (on-disk size: 21220 KB)
0005.846 (0) Zip: backup_2019-02-11-2255_Habit_aa19e35c7be7-plugins.zip.tmp: 4800 files added (on-disk size: 21220 KB)
0005.850 (0) Zip: backup_2019-02-11-2255_Habit_aa19e35c7be7-plugins.zip.tmp: 4900 files added (on-disk size: 21220 KB)
0005.854 (0) Zip: backup_2019-02-11-2255_Habit_aa19e35c7be7-plugins.zip.tmp: 5000 files added (on-disk size: 21220 KB)
0005.860 (0) Adding batch to zip file (UpdraftPlus_BinZip): over 500 files added on this batch (2.3 MB, 13102 files batched, 501 (5010) added so far); re-opening (prior size: 21220 KB)
0006.146 (0) Zip: backup_2019-02-11-2255_Habit_aa19e35c7be7-plugins.zip.tmp: 5100 files added (on-disk size: 22062.2 KB)
0006.149 (0) Zip: backup_2019-02-11-2255_Habit_aa19e35c7be7-plugins.zip.tmp: 5200 files added (on-disk size: 22062.2 KB)
0006.153 (0) Zip: backup_2019-02-11-2255_Habit_aa19e35c7be7-plugins.zip.tmp: 5300 files added (on-disk size: 22062.2 KB)
0006.156 (0) Zip: backup_2019-02-11-2255_Habit_aa19e35c7be7-plugins.zip.tmp: 5400 files added (on-disk size: 22062.2 KB)
0006.160 (0) Zip: backup_2019-02-11-2255_Habit_aa19e35c7be7-plugins.zip.tmp: 5500 files added (on-disk size: 22062.2 KB)
0006.161 (0) Adding batch to zip file (UpdraftPlus_BinZip): over 500 files added on this batch (3.9 MB, 13102 files batched, 501 (5511) added so far); re-opening (prior size: 22062.2 KB)
0006.559 (0) Zip: backup_2019-02-11-2255_Habit_aa19e35c7be7-plugins.zip.tmp: 5600 files added (on-disk size: 23715.6 KB)
0006.563 (0) Zip: backup_2019-02-11-2255_Habit_aa19e35c7be7-plugins.zip.tmp: 5700 files added (on-disk size: 23715.6 KB)
0006.567 (0) Zip: backup_2019-02-11-2255_Habit_aa19e35c7be7-plugins.zip.tmp: 5800 files added (on-disk size: 23715.6 KB)
0006.570 (0) Zip: backup_2019-02-11-2255_Habit_aa19e35c7be7-plugins.zip.tmp: 5900 files added (on-disk size: 23715.6 KB)
0006.573 (0) Zip: backup_2019-02-11-2255_Habit_aa19e35c7be7-plugins.zip.tmp: 6000 files added (on-disk size: 23715.6 KB)
0006.576 (0) Adding batch to zip file (UpdraftPlus_BinZip): over 500 files added on this batch (2.4 MB, 13102 files batched, 501 (6012) added so far); re-opening (prior size: 23715.6 KB)
0006.890 (0) Zip: backup_2019-02-11-2255_Habit_aa19e35c7be7-plugins.zip.tmp: 6100 files added (on-disk size: 24518.1 KB)
0006.893 (0) Zip: backup_2019-02-11-2255_Habit_aa19e35c7be7-plugins.zip.tmp: 6200 files added (on-disk size: 24518.1 KB)
0006.897 (0) Zip: backup_2019-02-11-2255_Habit_aa19e35c7be7-plugins.zip.tmp: 6300 files added (on-disk size: 24518.1 KB)
0006.900 (0) Zip: backup_2019-02-11-2255_Habit_aa19e35c7be7-plugins.zip.tmp: 6400 files added (on-disk size: 24518.1 KB)
0006.904 (0) Zip: backup_2019-02-11-2255_Habit_aa19e35c7be7-plugins.zip.tmp: 6500 files added (on-disk size: 24518.1 KB)
0006.905 (0) Adding batch to zip file (UpdraftPlus_BinZip): over 500 files added on this batch (11.3 MB, 13102 files batched, 501 (6513) added so far); re-opening (prior size: 24518.1 KB)
0008.053 (0) Zip: backup_2019-02-11-2255_Habit_aa19e35c7be7-plugins.zip.tmp: 6600 files added (on-disk size: 29222.5 KB)
0008.056 (0) Zip: backup_2019-02-11-2255_Habit_aa19e35c7be7-plugins.zip.tmp: 6700 files added (on-disk size: 29222.5 KB)
0008.059 (0) Zip: backup_2019-02-11-2255_Habit_aa19e35c7be7-plugins.zip.tmp: 6800 files added (on-disk size: 29222.5 KB)
0008.063 (0) Zip: backup_2019-02-11-2255_Habit_aa19e35c7be7-plugins.zip.tmp: 6900 files added (on-disk size: 29222.5 KB)
0008.070 (0) Zip: backup_2019-02-11-2255_Habit_aa19e35c7be7-plugins.zip.tmp: 7000 files added (on-disk size: 29222.5 KB)
0008.079 (0) Adding batch to zip file (UpdraftPlus_BinZip): over 500 files added on this batch (5.2 MB, 13102 files batched, 501 (7014) added so far); re-opening (prior size: 29222.5 KB)
0008.619 (0) Zip: backup_2019-02-11-2255_Habit_aa19e35c7be7-plugins.zip.tmp: 7100 files added (on-disk size: 30771.4 KB)
0008.626 (0) Zip: backup_2019-02-11-2255_Habit_aa19e35c7be7-plugins.zip.tmp: 7200 files added (on-disk size: 30771.4 KB)
0008.637 (0) Zip: backup_2019-02-11-2255_Habit_aa19e35c7be7-plugins.zip.tmp: 7300 files added (on-disk size: 30771.4 KB)
0008.641 (0) Zip: backup_2019-02-11-2255_Habit_aa19e35c7be7-plugins.zip.tmp: 7400 files added (on-disk size: 30771.4 KB)
0008.644 (0) Zip: backup_2019-02-11-2255_Habit_aa19e35c7be7-plugins.zip.tmp: 7500 files added (on-disk size: 30771.4 KB)
0008.646 (0) Adding batch to zip file (UpdraftPlus_BinZip): over 500 files added on this batch (9.6 MB, 13102 files batched, 501 (7515) added so far); re-opening (prior size: 30771.4 KB)
0009.557 (0) Zip: backup_2019-02-11-2255_Habit_aa19e35c7be7-plugins.zip.tmp: 7600 files added (on-disk size: 33616.3 KB)
0009.566 (0) Zip: backup_2019-02-11-2255_Habit_aa19e35c7be7-plugins.zip.tmp: 7700 files added (on-disk size: 33616.3 KB)
0009.570 (0) Zip: backup_2019-02-11-2255_Habit_aa19e35c7be7-plugins.zip.tmp: 7800 files added (on-disk size: 33616.3 KB)
0009.589 (0) Zip: backup_2019-02-11-2255_Habit_aa19e35c7be7-plugins.zip.tmp: 7900 files added (on-disk size: 33616.3 KB)
0009.599 (0) Zip: backup_2019-02-11-2255_Habit_aa19e35c7be7-plugins.zip.tmp: 8000 files added (on-disk size: 33616.3 KB)
0009.601 (0) Adding batch to zip file (UpdraftPlus_BinZip): over 500 files added on this batch (4 MB, 13102 files batched, 501 (8016) added so far); re-opening (prior size: 33616.3 KB)
0010.029 (0) Zip: backup_2019-02-11-2255_Habit_aa19e35c7be7-plugins.zip.tmp: 8100 files added (on-disk size: 35106.8 KB)
0010.033 (0) Zip: backup_2019-02-11-2255_Habit_aa19e35c7be7-plugins.zip.tmp: 8200 files added (on-disk size: 35106.8 KB)
0010.037 (0) Zip: backup_2019-02-11-2255_Habit_aa19e35c7be7-plugins.zip.tmp: 8300 files added (on-disk size: 35106.8 KB)
0010.041 (0) Zip: backup_2019-02-11-2255_Habit_aa19e35c7be7-plugins.zip.tmp: 8400 files added (on-disk size: 35106.8 KB)
0010.044 (0) Zip: backup_2019-02-11-2255_Habit_aa19e35c7be7-plugins.zip.tmp: 8500 files added (on-disk size: 35106.8 KB)
0010.050 (0) Adding batch to zip file (UpdraftPlus_BinZip): over 500 files added on this batch (9.4 MB, 13102 files batched, 501 (8517) added so far); re-opening (prior size: 35106.8 KB)
0010.817 (0) Zip: backup_2019-02-11-2255_Habit_aa19e35c7be7-plugins.zip.tmp: 8600 files added (on-disk size: 39123.1 KB)
0010.821 (0) Zip: backup_2019-02-11-2255_Habit_aa19e35c7be7-plugins.zip.tmp: 8700 files added (on-disk size: 39123.1 KB)
0010.824 (0) Zip: backup_2019-02-11-2255_Habit_aa19e35c7be7-plugins.zip.tmp: 8800 files added (on-disk size: 39123.1 KB)
0010.827 (0) Zip: backup_2019-02-11-2255_Habit_aa19e35c7be7-plugins.zip.tmp: 8900 files added (on-disk size: 39123.1 KB)
0010.831 (0) Zip: backup_2019-02-11-2255_Habit_aa19e35c7be7-plugins.zip.tmp: 9000 files added (on-disk size: 39123.1 KB)
0010.832 (0) Adding batch to zip file (UpdraftPlus_BinZip): over 500 files added on this batch (0.9 MB, 13102 files batched, 501 (9018) added so far); re-opening (prior size: 39123.1 KB)
0011.082 (0) Zip: backup_2019-02-11-2255_Habit_aa19e35c7be7-plugins.zip.tmp: 9100 files added (on-disk size: 39660.1 KB)
0011.086 (0) Zip: backup_2019-02-11-2255_Habit_aa19e35c7be7-plugins.zip.tmp: 9200 files added (on-disk size: 39660.1 KB)
0011.089 (0) Zip: backup_2019-02-11-2255_Habit_aa19e35c7be7-plugins.zip.tmp: 9300 files added (on-disk size: 39660.1 KB)
0011.094 (0) Zip: backup_2019-02-11-2255_Habit_aa19e35c7be7-plugins.zip.tmp: 9400 files added (on-disk size: 39660.1 KB)
0011.098 (0) Zip: backup_2019-02-11-2255_Habit_aa19e35c7be7-plugins.zip.tmp: 9500 files added (on-disk size: 39660.1 KB)
0011.099 (0) Adding batch to zip file (UpdraftPlus_BinZip): over 500 files added on this batch (8 MB, 13102 files batched, 501 (9519) added so far); re-opening (prior size: 39660.1 KB)
0011.911 (0) Zip: backup_2019-02-11-2255_Habit_aa19e35c7be7-plugins.zip.tmp: 9600 files added (on-disk size: 42556.2 KB)
0011.961 (0) Zip: backup_2019-02-11-2255_Habit_aa19e35c7be7-plugins.zip.tmp: 9700 files added (on-disk size: 42556.2 KB)
0011.971 (0) Zip: backup_2019-02-11-2255_Habit_aa19e35c7be7-plugins.zip.tmp: 9800 files added (on-disk size: 42556.2 KB)
0011.984 (0) Zip: backup_2019-02-11-2255_Habit_aa19e35c7be7-plugins.zip.tmp: 9900 files added (on-disk size: 42556.2 KB)
0011.993 (0) Zip: backup_2019-02-11-2255_Habit_aa19e35c7be7-plugins.zip.tmp: 10000 files added (on-disk size: 42556.2 KB)
0012.007 (0) Adding batch to zip file (UpdraftPlus_BinZip): over 500 files added on this batch (9.4 MB, 13102 files batched, 501 (10020) added so far); re-opening (prior size: 42556.2 KB)
0013.094 (0) Zip: backup_2019-02-11-2255_Habit_aa19e35c7be7-plugins.zip.tmp: 10100 files added (on-disk size: 44894.6 KB)
0013.098 (0) Zip: backup_2019-02-11-2255_Habit_aa19e35c7be7-plugins.zip.tmp: 10200 files added (on-disk size: 44894.6 KB)
0013.101 (0) Zip: backup_2019-02-11-2255_Habit_aa19e35c7be7-plugins.zip.tmp: 10300 files added (on-disk size: 44894.6 KB)
0013.104 (0) Zip: backup_2019-02-11-2255_Habit_aa19e35c7be7-plugins.zip.tmp: 10400 files added (on-disk size: 44894.6 KB)
0013.107 (0) Zip: backup_2019-02-11-2255_Habit_aa19e35c7be7-plugins.zip.tmp: 10500 files added (on-disk size: 44894.6 KB)
0013.109 (0) Adding batch to zip file (UpdraftPlus_BinZip): over 500 files added on this batch (4.3 MB, 13102 files batched, 501 (10521) added so far); re-opening (prior size: 44894.6 KB)
0013.565 (0) Zip: backup_2019-02-11-2255_Habit_aa19e35c7be7-plugins.zip.tmp: 10600 files added (on-disk size: 46997.1 KB)
0013.569 (0) Zip: backup_2019-02-11-2255_Habit_aa19e35c7be7-plugins.zip.tmp: 10700 files added (on-disk size: 46997.1 KB)
0013.572 (0) Zip: backup_2019-02-11-2255_Habit_aa19e35c7be7-plugins.zip.tmp: 10800 files added (on-disk size: 46997.1 KB)
0013.577 (0) Zip: backup_2019-02-11-2255_Habit_aa19e35c7be7-plugins.zip.tmp: 10900 files added (on-disk size: 46997.1 KB)
0013.580 (0) Zip: backup_2019-02-11-2255_Habit_aa19e35c7be7-plugins.zip.tmp: 11000 files added (on-disk size: 46997.1 KB)
0013.582 (0) Adding batch to zip file (UpdraftPlus_BinZip): over 500 files added on this batch (7.3 MB, 13102 files batched, 501 (11022) added so far); re-opening (prior size: 46997.1 KB)
0014.188 (0) Zip: backup_2019-02-11-2255_Habit_aa19e35c7be7-plugins.zip.tmp: 11100 files added (on-disk size: 50557.7 KB)
0014.191 (0) Zip: backup_2019-02-11-2255_Habit_aa19e35c7be7-plugins.zip.tmp: 11200 files added (on-disk size: 50557.7 KB)
0014.195 (0) Zip: backup_2019-02-11-2255_Habit_aa19e35c7be7-plugins.zip.tmp: 11300 files added (on-disk size: 50557.7 KB)
0014.197 (0) Zip: backup_2019-02-11-2255_Habit_aa19e35c7be7-plugins.zip.tmp: 11400 files added (on-disk size: 50557.7 KB)
0014.204 (0) Zip: backup_2019-02-11-2255_Habit_aa19e35c7be7-plugins.zip.tmp: 11500 files added (on-disk size: 50557.7 KB)
0014.205 (0) Adding batch to zip file (UpdraftPlus_BinZip): over 500 files added on this batch (8.6 MB, 13102 files batched, 501 (11523) added so far); re-opening (prior size: 50557.7 KB)
0015.023 (0) Zip: backup_2019-02-11-2255_Habit_aa19e35c7be7-plugins.zip.tmp: 11600 files added (on-disk size: 55192.2 KB)
0015.033 (0) Zip: backup_2019-02-11-2255_Habit_aa19e35c7be7-plugins.zip.tmp: 11700 files added (on-disk size: 55192.2 KB)
0015.036 (0) Zip: backup_2019-02-11-2255_Habit_aa19e35c7be7-plugins.zip.tmp: 11800 files added (on-disk size: 55192.2 KB)
0015.046 (0) Zip: backup_2019-02-11-2255_Habit_aa19e35c7be7-plugins.zip.tmp: 11900 files added (on-disk size: 55192.2 KB)
0015.065 (0) Zip: backup_2019-02-11-2255_Habit_aa19e35c7be7-plugins.zip.tmp: 12000 files added (on-disk size: 55192.2 KB)
0015.080 (0) Adding batch to zip file (UpdraftPlus_BinZip): over 500 files added on this batch (6.7 MB, 13102 files batched, 501 (12024) added so far); re-opening (prior size: 55192.2 KB)
0015.603 (0) Zip: backup_2019-02-11-2255_Habit_aa19e35c7be7-plugins.zip.tmp: 12100 files added (on-disk size: 56461.2 KB)
0015.606 (0) Zip: backup_2019-02-11-2255_Habit_aa19e35c7be7-plugins.zip.tmp: 12200 files added (on-disk size: 56461.2 KB)
0015.609 (0) Zip: backup_2019-02-11-2255_Habit_aa19e35c7be7-plugins.zip.tmp: 12300 files added (on-disk size: 56461.2 KB)
0015.612 (0) Zip: backup_2019-02-11-2255_Habit_aa19e35c7be7-plugins.zip.tmp: 12400 files added (on-disk size: 56461.2 KB)
0015.615 (0) Zip: backup_2019-02-11-2255_Habit_aa19e35c7be7-plugins.zip.tmp: 12500 files added (on-disk size: 56461.2 KB)
0015.617 (0) Adding batch to zip file (UpdraftPlus_BinZip): over 500 files added on this batch (7.3 MB, 13102 files batched, 501 (12525) added so far); re-opening (prior size: 56461.2 KB)
0016.254 (0) Zip: backup_2019-02-11-2255_Habit_aa19e35c7be7-plugins.zip.tmp: 12600 files added (on-disk size: 58946.5 KB)
0016.261 (0) Zip: backup_2019-02-11-2255_Habit_aa19e35c7be7-plugins.zip.tmp: 12700 files added (on-disk size: 58946.5 KB)
0016.264 (0) Zip: backup_2019-02-11-2255_Habit_aa19e35c7be7-plugins.zip.tmp: 12800 files added (on-disk size: 58946.5 KB)
0016.269 (0) Zip: backup_2019-02-11-2255_Habit_aa19e35c7be7-plugins.zip.tmp: 12900 files added (on-disk size: 58946.5 KB)
0016.274 (0) Zip: backup_2019-02-11-2255_Habit_aa19e35c7be7-plugins.zip.tmp: 13000 files added (on-disk size: 58946.5 KB)
0016.275 (0) Adding batch to zip file (UpdraftPlus_BinZip): over 500 files added on this batch (4.5 MB, 13102 files batched, 501 (13026) added so far); re-opening (prior size: 58946.5 KB)
0016.762 (0) Zip: backup_2019-02-11-2255_Habit_aa19e35c7be7-plugins.zip.tmp: 13100 files added (on-disk size: 60201.6 KB)
0018.146 (0) Created plugins zip (0) - 60300.2 KB in 17.9 s (3375.3 KB/s) (sha1: 8100d627dc76899eaf619f86a2a2869825be75d3, sha256: 03975ea3aafb92dd225bbaf28bc3411117b82359af5a31cb5d29b3d0cc3b8d69)
0018.154 (0) Beginning creation of dump of themes (split every: 400 MB)
0018.174 (0) Total entities for the zip file: 206 directories, 982 files (0 skipped as non-modified), 37.7 MB
0018.177 (0) Zip: backup_2019-02-11-2255_Habit_aa19e35c7be7-themes.zip.tmp: 100 files added (on-disk size: 0 KB)
0018.182 (0) Adding batch to zip file (UpdraftPlus_BinZip): over 25 MB added on this batch (25 MB, 982 files batched, 136 (136) added so far); re-opening (prior size: 0 KB)
0018.864 (0) backup_2019-02-11-2255_Habit_aa19e35c7be7-themes.zip.tmp: size is now: 19.10 MB
0018.994 (0) A useful amount of data was added after this amount of zip processing: 1.6 s (normalised: 1.6 s, rate: 15904.4 KB/s)
0019.008 (0) Performance is good - will increase the amount of data we attempt to batch (time=1.6121680736542, normalised_time=1.6096189045547, max_time=-1, data points known=0, old_max_bytes=26214400, new_max_bytes=97716546)
0019.016 (0) Zip: backup_2019-02-11-2255_Habit_aa19e35c7be7-themes.zip.tmp: 200 files added (on-disk size: 19542.6 KB)
0019.041 (0) Zip: backup_2019-02-11-2255_Habit_aa19e35c7be7-themes.zip.tmp: 300 files added (on-disk size: 19542.6 KB)
0019.046 (0) Zip: backup_2019-02-11-2255_Habit_aa19e35c7be7-themes.zip.tmp: 400 files added (on-disk size: 19542.6 KB)
0019.051 (0) Zip: backup_2019-02-11-2255_Habit_aa19e35c7be7-themes.zip.tmp: 500 files added (on-disk size: 19542.6 KB)
0019.060 (0) Zip: backup_2019-02-11-2255_Habit_aa19e35c7be7-themes.zip.tmp: 600 files added (on-disk size: 19542.6 KB)
0019.062 (0) Adding batch to zip file (UpdraftPlus_BinZip): over 500 files added on this batch (6.3 MB, 982 files batched, 501 (637) added so far); re-opening (prior size: 19542.6 KB)
0019.540 (0) Zip: backup_2019-02-11-2255_Habit_aa19e35c7be7-themes.zip.tmp: 700 files added (on-disk size: 22580.8 KB)
0019.544 (0) Zip: backup_2019-02-11-2255_Habit_aa19e35c7be7-themes.zip.tmp: 800 files added (on-disk size: 22580.8 KB)
0019.547 (0) Zip: backup_2019-02-11-2255_Habit_aa19e35c7be7-themes.zip.tmp: 900 files added (on-disk size: 22580.8 KB)
0020.470 (0) Created themes zip (0) - 26987.6 KB in 2.3 s (11666.1 KB/s) (sha1: f90b7a9c65cf13b752bb2e1140ac7b827a9f44bc, sha256: da1b6e96a454246dabeee83ab21039b6c3b19199a074b696ae3582276c85dd9a)
0020.473 (0) Exclusion option setting (uploads): backup*,*backups,backwpup*,wp-clone,snapshots
0020.474 (0) Looking for candidates to backup in: /home/habitph/habit.ph/wp-content/uploads
0020.475 (0) finding files: 2018: adding to list (1)
0020.476 (0) finding files: woocommerce_uploads: adding to list (2)
0020.477 (0) finding files: wc-logs: adding to list (3)
0020.478 (0) finding files: GeoIP.dat: adding to list (4)
0020.479 (0) finding files: GeoIPv6.dat: adding to list (5)
0020.481 (0) finding files: js_composer: adding to list (6)
0020.484 (0) finding files: revslider: adding to list (7)
0020.485 (0) finding files: 2017: adding to list (8)
0020.486 (0) finding files: custom-css-js: adding to list (9)
0020.498 (0) finding files: wc-product-export-24-7-2018-1532441745660.csv: adding to list (10)
0020.500 (0) finding files: wc-product-export-5-8-2018-1533403023768.csv: adding to list (11)
0020.501 (0) finding files: wc-product-export-14-12-2018-1544800680340.csv: adding to list (12)
0020.502 (0) finding files: wc-product-export-18-12-2018-1545139962935.csv: adding to list (13)
0020.503 (0) finding files: 2019: adding to list (14)
0020.504 (0) finding files: GeoLite2-Country.mmdb: adding to list (15)
0020.505 (0) finding files: wc-product-export-11-2-2019-1549890565781.csv: adding to list (16)
0020.506 (0) Beginning creation of dump of uploads (split every: 400 MB)
0020.551 (0) Total entities for the zip file: 205 directories, 2233 files (0 skipped as non-modified), 206 MB
0020.555 (0) Zip: backup_2019-02-11-2255_Habit_aa19e35c7be7-uploads.zip.tmp: 100 files added (on-disk size: 0 KB)
0020.558 (0) Zip: backup_2019-02-11-2255_Habit_aa19e35c7be7-uploads.zip.tmp: 200 files added (on-disk size: 0 KB)
0020.561 (0) Zip: backup_2019-02-11-2255_Habit_aa19e35c7be7-uploads.zip.tmp: 300 files added (on-disk size: 0 KB)
0020.568 (0) Zip: backup_2019-02-11-2255_Habit_aa19e35c7be7-uploads.zip.tmp: 400 files added (on-disk size: 0 KB)
0020.571 (0) Zip: backup_2019-02-11-2255_Habit_aa19e35c7be7-uploads.zip.tmp: 500 files added (on-disk size: 0 KB)
0020.572 (0) Adding batch to zip file (UpdraftPlus_BinZip): over 500 files added on this batch (78.8 MB, 2233 files batched, 501 (501) added so far); re-opening (prior size: 0 KB)
0022.498 (0) backup_2019-02-11-2255_Habit_aa19e35c7be7-uploads.zip.tmp: size is now: 79.00 MB
0022.504 (0) Zip: backup_2019-02-11-2255_Habit_aa19e35c7be7-uploads.zip.tmp: 600 files added (on-disk size: 80871 KB)
0022.507 (0) Zip: backup_2019-02-11-2255_Habit_aa19e35c7be7-uploads.zip.tmp: 700 files added (on-disk size: 80871 KB)
0022.509 (0) Zip: backup_2019-02-11-2255_Habit_aa19e35c7be7-uploads.zip.tmp: 800 files added (on-disk size: 80871 KB)
0022.512 (0) Zip: backup_2019-02-11-2255_Habit_aa19e35c7be7-uploads.zip.tmp: 900 files added (on-disk size: 80871 KB)
0022.514 (0) Zip: backup_2019-02-11-2255_Habit_aa19e35c7be7-uploads.zip.tmp: 1000 files added (on-disk size: 80871 KB)
0022.521 (0) Adding batch to zip file (UpdraftPlus_BinZip): over 500 files added on this batch (90.6 MB, 2233 files batched, 501 (1002) added so far); re-opening (prior size: 80871 KB)
0023.533 (0) backup_2019-02-11-2255_Habit_aa19e35c7be7-uploads.zip.tmp: size is now: 169.60 MB
0023.539 (0) Zip: backup_2019-02-11-2255_Habit_aa19e35c7be7-uploads.zip.tmp: 1100 files added (on-disk size: 173717 KB)
0023.544 (0) Zip: backup_2019-02-11-2255_Habit_aa19e35c7be7-uploads.zip.tmp: 1200 files added (on-disk size: 173717 KB)
0023.553 (0) Zip: backup_2019-02-11-2255_Habit_aa19e35c7be7-uploads.zip.tmp: 1300 files added (on-disk size: 173717 KB)
0023.556 (0) Zip: backup_2019-02-11-2255_Habit_aa19e35c7be7-uploads.zip.tmp: 1400 files added (on-disk size: 173717 KB)
0023.559 (0) Zip: backup_2019-02-11-2255_Habit_aa19e35c7be7-uploads.zip.tmp: 1500 files added (on-disk size: 173717 KB)
0023.562 (0) Adding batch to zip file (UpdraftPlus_BinZip): over 500 files added on this batch (18.8 MB, 2233 files batched, 501 (1503) added so far); re-opening (prior size: 173717 KB)
0025.367 (0) Zip: backup_2019-02-11-2255_Habit_aa19e35c7be7-uploads.zip.tmp: 1600 files added (on-disk size: 191275.6 KB)
0025.372 (0) Zip: backup_2019-02-11-2255_Habit_aa19e35c7be7-uploads.zip.tmp: 1700 files added (on-disk size: 191275.6 KB)
0025.381 (0) Zip: backup_2019-02-11-2255_Habit_aa19e35c7be7-uploads.zip.tmp: 1800 files added (on-disk size: 191275.6 KB)
0025.390 (0) Zip: backup_2019-02-11-2255_Habit_aa19e35c7be7-uploads.zip.tmp: 1900 files added (on-disk size: 191275.6 KB)
0025.393 (0) Zip: backup_2019-02-11-2255_Habit_aa19e35c7be7-uploads.zip.tmp: 2000 files added (on-disk size: 191275.6 KB)
0025.394 (0) Adding batch to zip file (UpdraftPlus_BinZip): over 500 files added on this batch (7.7 MB, 2233 files batched, 501 (2004) added so far); re-opening (prior size: 191275.6 KB)
0026.398 (0) Zip: backup_2019-02-11-2255_Habit_aa19e35c7be7-uploads.zip.tmp: 2100 files added (on-disk size: 199274.4 KB)
0026.401 (0) Zip: backup_2019-02-11-2255_Habit_aa19e35c7be7-uploads.zip.tmp: 2200 files added (on-disk size: 199274.4 KB)
0031.313 (0) Created uploads zip (0) - 207633.4 KB in 10.8 s (19214.7 KB/s) (sha1: e1d2d0292cf00b7cb52be95a6581660ae2636c2e, sha256: cb237ce0dc9dd3ad88f70dd5a16dbe85f18c62f39649edb9cab8ac2afe09c526)
0031.316 (0) Beginning backup of other directories found in the content directory (index: 0)
0031.324 (0) Exclusion option setting (others): upgrade,cache,updraft,backup*,*backups,mysql.sql,debug.log
0031.325 (0) Looking for candidates to backup in: /home/habitph/habit.ph/wp-content
0031.327 (0) finding files: index.php: adding to list (1)
0031.338 (0) finding files: themes: skipping: this is the themes directory
0031.339 (0) finding files: upgrade: skipping: excluded by options
0031.340 (0) finding files: uploads: skipping: this is the uploads directory
0031.341 (0) finding files: logs: adding to list (2)
0031.350 (0) finding files: mu-plugins: adding to list (3)
0031.352 (0) finding files: cache: skipping: excluded by options
0031.353 (0) finding files: advanced-cache.php: adding to list (4)
0031.358 (0) finding files: wp-cache-config.php: adding to list (5)
0031.359 (0) finding files: plugins: skipping: this is the plugins directory
0031.361 (0) finding files: wp-performance-score-booster: adding to list (6)
0031.362 (0) finding files: wflogs: adding to list (7)
0031.364 (0) finding files: updraft: skipping: this is the updraft directory
0031.369 (0) Total entities for the zip file: 5 directories, 15 files (0 skipped as non-modified), 5.3 MB
0031.989 (0) backup_2019-02-11-2255_Habit_aa19e35c7be7-others.zip.tmp: size is now: 2.30 MB
0032.044 (0) Created others zip (0) - 2364.7 KB in 0.7 s (3482.9 KB/s) (sha1: 5ff31a0eabe02cade608c4463273053c53c49c36, sha256: cbf498e73987e77084b264a19b8863906211f651a99b7bc580fca48e5fc075f9)
0032.054 (0) Saving backup status to database (elements: 8)
0032.088 (0) Beginning creation of database dump (WordPress DB)
0032.093 (0) Testing potential mysqldump binary: /usr/bin/mysqldump
0032.158 (0) Output: /*!40103 SET @OLD_TIME_ZONE=@@TIME_ZONE */;\n/*!40103 SET TIME_ZONE='+00:00' */;\n/*!40014 SET @OLD_UNIQUE_CHECKS=@@UNIQUE_CHECKS, UNIQUE_CHECKS=0 */;\n/*!40014 SET @OLD_FOREIGN_KEY_CHECKS=@@FOREIGN_KEY_CHECKS, FOREIGN_KEY_CHECKS=0 */;\n/*!40101 SET @OLD_SQL_MODE=@@SQL_MODE, SQL_MODE='NO_AUTO_VALUE_ON_ZERO' */;\n/*!40111 SET @OLD_SQL_NOTES=@@SQL_NOTES, SQL_NOTES=0 */;\nDROP TABLE IF EXISTS `wphabit_options`;\n/*!40101 SET @saved_cs_client     = @@character_set_client */;\n/*!40101 SET character_set_client = utf8 */ (truncated - 1232 bytes total)
0032.169 (0) Working binary mysqldump found: /usr/bin/mysqldump
0032.613 (0) Table wphabit_options: Total expected rows (approximate): 13305
0033.183 (0) Table wphabit_options: binary mysqldump finished (writes: 36) in 0.57 seconds
0033.185 (0) Table wphabit_options: finishing file (backup_2019-02-11-2255_Habit_aa19e35c7be7-db-table-wphabit_options.table.gz - 511 KB)
0033.196 (0) Table wphabit_users: Total expected rows (approximate): 89
0033.216 (0) Table wphabit_users: Total rows added: 294 in 0.02 seconds
0033.219 (0) Table wphabit_users: finishing file (backup_2019-02-11-2255_Habit_aa19e35c7be7-db-table-wphabit_users.table.gz - 16.7 KB)
0033.233 (0) Table wphabit_usermeta: Total expected rows (approximate): 4449
0034.359 (0) Table wphabit_usermeta: Total rows added: 13252 in 1.12 seconds
0034.361 (0) Table wphabit_usermeta: finishing file (backup_2019-02-11-2255_Habit_aa19e35c7be7-db-table-wphabit_usermeta.table.gz - 147.8 KB)
0034.450 (0) Table wphabit_commentmeta: Total expected rows (approximate): 208
0034.553 (0) Table wphabit_commentmeta: Total rows added: 465 in 0.10 seconds
0034.555 (0) Table wphabit_commentmeta: finishing file (backup_2019-02-11-2255_Habit_aa19e35c7be7-db-table-wphabit_commentmeta.table.gz - 2.8 KB)
0034.569 (0) Table wphabit_comments: Total expected rows (approximate): 600
0035.686 (0) Table wphabit_comments: Total rows added: 3973 in 1.12 seconds
0035.695 (0) Table wphabit_comments: finishing file (backup_2019-02-11-2255_Habit_aa19e35c7be7-db-table-wphabit_comments.table.gz - 86 KB)
0035.782 (0) Table wphabit_links: Total expected rows (approximate): 0
0035.805 (0) Table wphabit_links: Total rows added: 0 in 0.02 seconds
0035.808 (0) Table wphabit_links: finishing file (backup_2019-02-11-2255_Habit_aa19e35c7be7-db-table-wphabit_links.table.gz - 0.4 KB)
0035.828 (0) Table wphabit_postmeta: Total expected rows (approximate): 74647
0036.825 (0) Table wphabit_postmeta: binary mysqldump finished (writes: 36) in 0.99 seconds
0036.829 (0) Table wphabit_postmeta: finishing file (backup_2019-02-11-2255_Habit_aa19e35c7be7-db-table-wphabit_postmeta.table.gz - 709.5 KB)
0036.871 (0) Table wphabit_posts: Total expected rows (approximate): 1630
0038.630 (0) Table wphabit_posts: Total rows added: 2202 in 1.69 seconds
0038.640 (0) Table wphabit_posts: finishing file (backup_2019-02-11-2255_Habit_aa19e35c7be7-db-table-wphabit_posts.table.gz - 164.9 KB)
0038.647 (0) Table wphabit_term_relationships: Total expected rows (approximate): 260
0038.673 (0) Table wphabit_term_relationships: Total rows added: 260 in 0.01 seconds
0038.675 (0) Table wphabit_term_relationships: finishing file (backup_2019-02-11-2255_Habit_aa19e35c7be7-db-table-wphabit_term_relationships.table.gz - 1.1 KB)
0038.696 (0) Table wphabit_term_taxonomy: Total expected rows (approximate): 189
0038.713 (0) Table wphabit_term_taxonomy: Total rows added: 220 in 0.01 seconds
0038.719 (0) Table wphabit_term_taxonomy: finishing file (backup_2019-02-11-2255_Habit_aa19e35c7be7-db-table-wphabit_term_taxonomy.table.gz - 2.1 KB)
0038.760 (0) Table wphabit_termmeta: Total expected rows (approximate): 75
0038.797 (0) Table wphabit_termmeta: Total rows added: 75 in 0.02 seconds
0038.800 (0) Table wphabit_termmeta: finishing file (backup_2019-02-11-2255_Habit_aa19e35c7be7-db-table-wphabit_termmeta.table.gz - 1 KB)
0038.938 (0) Table wphabit_terms: Total expected rows (approximate): 184
0038.947 (0) Table wphabit_terms: Total rows added: 220 in 0.01 seconds
0038.949 (0) Table wphabit_terms: finishing file (backup_2019-02-11-2255_Habit_aa19e35c7be7-db-table-wphabit_terms.table.gz - 2.7 KB)
0038.976 (0) Table wphabit_woocommerce_order_itemmeta: Total expected rows (approximate): 35184
0042.170 (0) Table wphabit_woocommerce_order_itemmeta: binary mysqldump finished (writes: 34) in 3.19 seconds
0042.173 (0) Table wphabit_woocommerce_order_itemmeta: finishing file (backup_2019-02-11-2255_Habit_aa19e35c7be7-db-table-wphabit_woocommerce_order_itemmeta.table.gz - 316.4 KB)
0042.223 (0) Table wphabit_woocommerce_payment_tokenmeta: Total expected rows (approximate): 0
0042.257 (0) Table wphabit_woocommerce_payment_tokenmeta: Total rows added: 0 in 0.03 seconds
0042.263 (0) Table wphabit_woocommerce_payment_tokenmeta: finishing file (backup_2019-02-11-2255_Habit_aa19e35c7be7-db-table-wphabit_woocommerce_payment_tokenmeta.table.gz - 0.4 KB)
0042.273 (0) Table wphabit_yoast_seo_links: Total expected rows (approximate): 72
0042.279 (0) Table wphabit_yoast_seo_links: Total rows added: 72 in 0.01 seconds
0042.281 (0) Table wphabit_yoast_seo_links: finishing file (backup_2019-02-11-2255_Habit_aa19e35c7be7-db-table-wphabit_yoast_seo_links.table.gz - 1.8 KB)
0042.294 (0) Table wphabit_yoast_seo_meta: Total expected rows (approximate): 581
0042.302 (0) Table wphabit_yoast_seo_meta: Total rows added: 814 in 0.01 seconds
0042.313 (0) Table wphabit_yoast_seo_meta: finishing file (backup_2019-02-11-2255_Habit_aa19e35c7be7-db-table-wphabit_yoast_seo_meta.table.gz - 2.3 KB)
0042.574 (0) Table wphabit_newsletter: Total expected rows (approximate): 0
0042.626 (0) Table wphabit_newsletter: Total rows added: 0 in 0.05 seconds
0042.638 (0) Table wphabit_newsletter: finishing file (backup_2019-02-11-2255_Habit_aa19e35c7be7-db-table-wphabit_newsletter.table.gz - 0.8 KB)
0042.728 (0) Table wphabit_newsletter_emails: Total expected rows (approximate): 0
0042.774 (0) Table wphabit_newsletter_emails: Total rows added: 0 in 0.03 seconds
0042.781 (0) Table wphabit_newsletter_emails: finishing file (backup_2019-02-11-2255_Habit_aa19e35c7be7-db-table-wphabit_newsletter_emails.table.gz - 0.6 KB)
0042.817 (0) Table wphabit_newsletter_sent: Total expected rows (approximate): 0
0042.865 (0) Table wphabit_newsletter_sent: Total rows added: 0 in 0.05 seconds
0042.968 (0) Table wphabit_newsletter_sent: finishing file (backup_2019-02-11-2255_Habit_aa19e35c7be7-db-table-wphabit_newsletter_sent.table.gz - 0.4 KB)
0043.030 (0) Table wphabit_newsletter_stats: Total expected rows (approximate): 0
0043.046 (0) Table wphabit_newsletter_stats: Total rows added: 0 in 0.01 seconds
0043.058 (0) Table wphabit_newsletter_stats: finishing file (backup_2019-02-11-2255_Habit_aa19e35c7be7-db-table-wphabit_newsletter_stats.table.gz - 0.4 KB)
0043.096 (0) Table wphabit_newsletter_user_logs: Total expected rows (approximate): 0
0043.115 (0) Table wphabit_newsletter_user_logs: Total rows added: 0 in 0.02 seconds
0043.117 (0) Table wphabit_newsletter_user_logs: finishing file (backup_2019-02-11-2255_Habit_aa19e35c7be7-db-table-wphabit_newsletter_user_logs.table.gz - 0.3 KB)
0043.139 (0) Table wphabit_revslider_css: Total expected rows (approximate): 109
0043.228 (0) Table wphabit_revslider_css: Total rows added: 109 in 0.09 seconds
0043.233 (0) Table wphabit_revslider_css: finishing file (backup_2019-02-11-2255_Habit_aa19e35c7be7-db-table-wphabit_revslider_css.table.gz - 4.9 KB)
0043.272 (0) Table wphabit_revslider_layer_animations: Total expected rows (approximate): 0
0043.288 (0) Table wphabit_revslider_layer_animations: Total rows added: 0 in 0.01 seconds
0043.290 (0) Table wphabit_revslider_layer_animations: finishing file (backup_2019-02-11-2255_Habit_aa19e35c7be7-db-table-wphabit_revslider_layer_animations.table.gz - 0.3 KB)
0043.388 (0) Table wphabit_revslider_navigations: Total expected rows (approximate): 0
0043.402 (0) Table wphabit_revslider_navigations: Total rows added: 0 in 0.01 seconds
0043.404 (0) Table wphabit_revslider_navigations: finishing file (backup_2019-02-11-2255_Habit_aa19e35c7be7-db-table-wphabit_revslider_navigations.table.gz - 0.3 KB)
0043.422 (0) Table wphabit_revslider_sliders: Total expected rows (approximate): 1
0043.434 (0) Table wphabit_revslider_sliders: Total rows added: 1 in 0.00 seconds
0043.436 (0) Table wphabit_revslider_sliders: finishing file (backup_2019-02-11-2255_Habit_aa19e35c7be7-db-table-wphabit_revslider_sliders.table.gz - 3.2 KB)
0043.457 (0) Table wphabit_revslider_slides: Total expected rows (approximate): 4
0043.474 (0) Table wphabit_revslider_slides: Total rows added: 4 in 0.01 seconds
0043.479 (0) Table wphabit_revslider_slides: finishing file (backup_2019-02-11-2255_Habit_aa19e35c7be7-db-table-wphabit_revslider_slides.table.gz - 2 KB)
0043.523 (0) Table wphabit_revslider_static_slides: Total expected rows (approximate): 0
0043.549 (0) Table wphabit_revslider_static_slides: Total rows added: 1 in 0.02 seconds
0043.550 (0) Table wphabit_revslider_static_slides: finishing file (backup_2019-02-11-2255_Habit_aa19e35c7be7-db-table-wphabit_revslider_static_slides.table.gz - 0.4 KB)
0043.586 (0) Table wphabit_smush_dir_images: Total expected rows (approximate): 0
0043.606 (0) Table wphabit_smush_dir_images: Total rows added: 0 in 0.01 seconds
0043.616 (0) Table wphabit_smush_dir_images: finishing file (backup_2019-02-11-2255_Habit_aa19e35c7be7-db-table-wphabit_smush_dir_images.table.gz - 0.4 KB)
0043.685 (0) Table wphabit_vtprd_purchase_log: Total expected rows (approximate): 0
0043.715 (0) Table wphabit_vtprd_purchase_log: Total rows added: 0 in 0.03 seconds
0043.717 (0) Table wphabit_vtprd_purchase_log: finishing file (backup_2019-02-11-2255_Habit_aa19e35c7be7-db-table-wphabit_vtprd_purchase_log.table.gz - 0.4 KB)
0043.756 (0) Table wphabit_vtprd_purchase_log_product: Total expected rows (approximate): 0
0043.772 (0) Table wphabit_vtprd_purchase_log_product: Total rows added: 0 in 0.01 seconds
0043.774 (0) Table wphabit_vtprd_purchase_log_product: finishing file (backup_2019-02-11-2255_Habit_aa19e35c7be7-db-table-wphabit_vtprd_purchase_log_product.table.gz - 0.4 KB)
0043.810 (0) Table wphabit_vtprd_purchase_log_product_rule: Total expected rows (approximate): 0
0043.824 (0) Table wphabit_vtprd_purchase_log_product_rule: Total rows added: 0 in 0.01 seconds
0043.829 (0) Table wphabit_vtprd_purchase_log_product_rule: finishing file (backup_2019-02-11-2255_Habit_aa19e35c7be7-db-table-wphabit_vtprd_purchase_log_product_rule.table.gz - 0.4 KB)
0044.048 (0) Table wphabit_wc_download_log: Total expected rows (approximate): 0
0044.158 (0) Table wphabit_wc_download_log: Total rows added: 0 in 0.05 seconds
0044.161 (0) Table wphabit_wc_download_log: finishing file (backup_2019-02-11-2255_Habit_aa19e35c7be7-db-table-wphabit_wc_download_log.table.gz - 0.4 KB)
0044.191 (0) Table wphabit_wc_webhooks: Total expected rows (approximate): 0
0044.216 (0) Table wphabit_wc_webhooks: Total rows added: 0 in 0.02 seconds
0044.225 (0) Table wphabit_wc_webhooks: finishing file (backup_2019-02-11-2255_Habit_aa19e35c7be7-db-table-wphabit_wc_webhooks.table.gz - 0.5 KB)
0044.255 (0) Table wphabit_wcmp_cust_answers: Total expected rows (approximate): 0
0044.273 (0) Table wphabit_wcmp_cust_answers: Total rows added: 0 in 0.01 seconds
0044.278 (0) Table wphabit_wcmp_cust_answers: finishing file (backup_2019-02-11-2255_Habit_aa19e35c7be7-db-table-wphabit_wcmp_cust_answers.table.gz - 0.4 KB)
0044.306 (0) Table wphabit_wcmp_cust_questions: Total expected rows (approximate): 0
0044.381 (0) Table wphabit_wcmp_cust_questions: Total rows added: 0 in 0.06 seconds
0044.387 (0) Table wphabit_wcmp_cust_questions: finishing file (backup_2019-02-11-2255_Habit_aa19e35c7be7-db-table-wphabit_wcmp_cust_questions.table.gz - 0.4 KB)
0044.421 (0) Table wphabit_wcmp_products_map: Total expected rows (approximate): 0
0044.426 (0) Table wphabit_wcmp_products_map: Total rows added: 0 in 0.00 seconds
0044.427 (0) Table wphabit_wcmp_products_map: finishing file (backup_2019-02-11-2255_Habit_aa19e35c7be7-db-table-wphabit_wcmp_products_map.table.gz - 0.3 KB)
0044.457 (0) Table wphabit_wcmp_shipping_zone_locations: Total expected rows (approximate): 0
0044.482 (0) Table wphabit_wcmp_shipping_zone_locations: Total rows added: 0 in 0.02 seconds
0044.485 (0) Table wphabit_wcmp_shipping_zone_locations: finishing file (backup_2019-02-11-2255_Habit_aa19e35c7be7-db-table-wphabit_wcmp_shipping_zone_locations.table.gz - 0.3 KB)
0044.519 (0) Table wphabit_wcmp_shipping_zone_methods: Total expected rows (approximate): 0
0044.533 (0) Table wphabit_wcmp_shipping_zone_methods: Total rows added: 0 in 0.01 seconds
0044.536 (0) Table wphabit_wcmp_shipping_zone_methods: finishing file (backup_2019-02-11-2255_Habit_aa19e35c7be7-db-table-wphabit_wcmp_shipping_zone_methods.table.gz - 0.4 KB)
0044.563 (0) Table wphabit_wcmp_vendor_orders: Total expected rows (approximate): 0
0044.587 (0) Table wphabit_wcmp_vendor_orders: Total rows added: 0 in 0.02 seconds
0044.589 (0) Table wphabit_wcmp_vendor_orders: finishing file (backup_2019-02-11-2255_Habit_aa19e35c7be7-db-table-wphabit_wcmp_vendor_orders.table.gz - 0.5 KB)
0044.630 (0) Table wphabit_wcmp_visitors_stats: Total expected rows (approximate): 0
0044.663 (0) Table wphabit_wcmp_visitors_stats: Total rows added: 0 in 0.03 seconds
0044.672 (0) Table wphabit_wcmp_visitors_stats: finishing file (backup_2019-02-11-2255_Habit_aa19e35c7be7-db-table-wphabit_wcmp_visitors_stats.table.gz - 0.5 KB)
0044.693 (0) Table wphabit_wcsp_group_category_pricing_mapping: Total expected rows (approximate): 0
0044.711 (0) Table wphabit_wcsp_group_category_pricing_mapping: Total rows added: 0 in 0.02 seconds
0044.716 (0) Table wphabit_wcsp_group_category_pricing_mapping: finishing file (backup_2019-02-11-2255_Habit_aa19e35c7be7-db-table-wphabit_wcsp_group_category_pricing_mapping.table.gz - 0.4 KB)
0044.743 (0) Table wphabit_wcsp_role_category_pricing_mapping: Total expected rows (approximate): 0
0044.781 (0) Table wphabit_wcsp_role_category_pricing_mapping: Total rows added: 0 in 0.04 seconds
0044.802 (0) Table wphabit_wcsp_role_category_pricing_mapping: finishing file (backup_2019-02-11-2255_Habit_aa19e35c7be7-db-table-wphabit_wcsp_role_category_pricing_mapping.table.gz - 0.4 KB)
0044.841 (0) Table wphabit_wcsp_user_category_pricing_mapping: Total expected rows (approximate): 0
0045.001 (0) Table wphabit_wcsp_user_category_pricing_mapping: Total rows added: 0 in 0.04 seconds
0045.002 (0) Table wphabit_wcsp_user_category_pricing_mapping: finishing file (backup_2019-02-11-2255_Habit_aa19e35c7be7-db-table-wphabit_wcsp_user_category_pricing_mapping.table.gz - 0.4 KB)
0045.079 (0) Table wphabit_wfBadLeechers: Total expected rows (approximate): 0
0045.107 (0) Table wphabit_wfBadLeechers: Total rows added: 0 in 0.03 seconds
0045.110 (0) Table wphabit_wfBadLeechers: finishing file (backup_2019-02-11-2255_Habit_aa19e35c7be7-db-table-wphabit_wfBadLeechers.table.gz - 0.3 KB)
0045.174 (0) Table wphabit_wfBlockedCommentLog: Total expected rows (approximate): 0
0045.201 (0) Table wphabit_wfBlockedCommentLog: Total rows added: 0 in 0.03 seconds
0045.203 (0) Table wphabit_wfBlockedCommentLog: finishing file (backup_2019-02-11-2255_Habit_aa19e35c7be7-db-table-wphabit_wfBlockedCommentLog.table.gz - 0.3 KB)
0045.241 (0) Table wphabit_wfBlockedIPLog: Total expected rows (approximate): 200
0045.250 (0) Table wphabit_wfBlockedIPLog: Total rows added: 205 in 0.01 seconds
0045.254 (0) Table wphabit_wfBlockedIPLog: finishing file (backup_2019-02-11-2255_Habit_aa19e35c7be7-db-table-wphabit_wfBlockedIPLog.table.gz - 2.3 KB)
0045.282 (0) Table wphabit_wfBlocks7: Total expected rows (approximate): 0
0045.292 (0) Table wphabit_wfBlocks7: Total rows added: 0 in 0.00 seconds
0045.294 (0) Table wphabit_wfBlocks7: finishing file (backup_2019-02-11-2255_Habit_aa19e35c7be7-db-table-wphabit_wfBlocks7.table.gz - 0.4 KB)
0045.477 (0) Table wphabit_wfConfig: Total expected rows (approximate): 258
0045.523 (0) Table wphabit_wfConfig: Total rows added: 260 in 0.04 seconds
0045.526 (0) Table wphabit_wfConfig: finishing file (backup_2019-02-11-2255_Habit_aa19e35c7be7-db-table-wphabit_wfConfig.table.gz - 368 KB)
0045.550 (0) Table wphabit_wfCrawlers: Total expected rows (approximate): 41
0045.564 (0) Table wphabit_wfCrawlers: Total rows added: 73 in 0.00 seconds
0045.566 (0) Table wphabit_wfCrawlers: finishing file (backup_2019-02-11-2255_Habit_aa19e35c7be7-db-table-wphabit_wfCrawlers.table.gz - 1.4 KB)
0045.636 (0) Table wphabit_wfFileChanges: Total expected rows (approximate): 0
0045.674 (0) Table wphabit_wfFileChanges: Total rows added: 0 in 0.03 seconds
0045.676 (0) Table wphabit_wfFileChanges: finishing file (backup_2019-02-11-2255_Habit_aa19e35c7be7-db-table-wphabit_wfFileChanges.table.gz - 0.3 KB)
0045.707 (0) Table wphabit_wfFileMods: Total expected rows (approximate): 12416
0049.746 (0) Table wphabit_wfFileMods: binary mysqldump finished (writes: 37) in 4.04 seconds
0049.750 (0) Table wphabit_wfFileMods: finishing file (backup_2019-02-11-2255_Habit_aa19e35c7be7-db-table-wphabit_wfFileMods.table.gz - 1211.8 KB)
0049.766 (0) Table wphabit_wfHits: Total expected rows (approximate): 2232
0050.575 (0) Table wphabit_wfHits: Total rows added: 2377 in 0.81 seconds
0050.588 (0) Table wphabit_wfHits: finishing file (backup_2019-02-11-2255_Habit_aa19e35c7be7-db-table-wphabit_wfHits.table.gz - 75.4 KB)
0050.625 (0) Table wphabit_wfHoover: Total expected rows (approximate): 0
0050.654 (0) Table wphabit_wfHoover: Total rows added: 0 in 0.03 seconds
0050.657 (0) Table wphabit_wfHoover: finishing file (backup_2019-02-11-2255_Habit_aa19e35c7be7-db-table-wphabit_wfHoover.table.gz - 0.3 KB)
0050.692 (0) Table wphabit_wfIssues: Total expected rows (approximate): 5
0050.726 (0) Table wphabit_wfIssues: Total rows added: 5 in 0.03 seconds
0050.728 (0) Table wphabit_wfIssues: finishing file (backup_2019-02-11-2255_Habit_aa19e35c7be7-db-table-wphabit_wfIssues.table.gz - 2.1 KB)
0050.770 (0) Table wphabit_wfKnownFileList: Total expected rows (approximate): 13504
0051.950 (0) Table wphabit_wfKnownFileList: binary mysqldump finished (writes: 29) in 1.18 seconds
0051.954 (0) Table wphabit_wfKnownFileList: finishing file (backup_2019-02-11-2255_Habit_aa19e35c7be7-db-table-wphabit_wfKnownFileList.table.gz - 137.4 KB)
0051.980 (0) Table wphabit_wfLeechers: Total expected rows (approximate): 608
0052.040 (0) Table wphabit_wfLeechers: Total rows added: 710 in 0.06 seconds
0052.044 (0) Table wphabit_wfLeechers: finishing file (backup_2019-02-11-2255_Habit_aa19e35c7be7-db-table-wphabit_wfLeechers.table.gz - 5 KB)
0052.085 (0) Table wphabit_wfLiveTrafficHuman: Total expected rows (approximate): 194
0052.092 (0) Table wphabit_wfLiveTrafficHuman: Total rows added: 194 in 0.00 seconds
0052.094 (0) Table wphabit_wfLiveTrafficHuman: finishing file (backup_2019-02-11-2255_Habit_aa19e35c7be7-db-table-wphabit_wfLiveTrafficHuman.table.gz - 8 KB)
0052.139 (0) Table wphabit_wfLocs: Total expected rows (approximate): 0
0052.185 (0) Table wphabit_wfLocs: Total rows added: 0 in 0.04 seconds
0052.188 (0) Table wphabit_wfLocs: finishing file (backup_2019-02-11-2255_Habit_aa19e35c7be7-db-table-wphabit_wfLocs.table.gz - 0.4 KB)
0052.231 (0) Table wphabit_wfLogins: Total expected rows (approximate): 458
0052.283 (0) Table wphabit_wfLogins: Total rows added: 818 in 0.05 seconds
0052.303 (0) Table wphabit_wfLogins: finishing file (backup_2019-02-11-2255_Habit_aa19e35c7be7-db-table-wphabit_wfLogins.table.gz - 17.8 KB)
0052.416 (0) Table wphabit_wfNotifications: Total expected rows (approximate): 2
0052.434 (0) Table wphabit_wfNotifications: Total rows added: 4 in 0.01 seconds
0052.438 (0) Table wphabit_wfNotifications: finishing file (backup_2019-02-11-2255_Habit_aa19e35c7be7-db-table-wphabit_wfNotifications.table.gz - 0.6 KB)
0052.469 (0) Table wphabit_wfPendingIssues: Total expected rows (approximate): 0
0052.478 (0) Table wphabit_wfPendingIssues: Total rows added: 0 in 0.01 seconds
0052.480 (0) Table wphabit_wfPendingIssues: finishing file (backup_2019-02-11-2255_Habit_aa19e35c7be7-db-table-wphabit_wfPendingIssues.table.gz - 0.4 KB)
0052.506 (0) Table wphabit_wfReverseCache: Total expected rows (approximate): 3
0052.561 (0) Table wphabit_wfReverseCache: Total rows added: 4 in 0.05 seconds
0052.565 (0) Table wphabit_wfReverseCache: finishing file (backup_2019-02-11-2255_Habit_aa19e35c7be7-db-table-wphabit_wfReverseCache.table.gz - 0.5 KB)
0052.637 (0) Table wphabit_wfSNIPCache: Total expected rows (approximate): 3
0052.691 (0) Table wphabit_wfSNIPCache: Total rows added: 3 in 0.04 seconds
0052.696 (0) Table wphabit_wfSNIPCache: finishing file (backup_2019-02-11-2255_Habit_aa19e35c7be7-db-table-wphabit_wfSNIPCache.table.gz - 0.5 KB)
0052.777 (0) Table wphabit_wfScanners: Total expected rows (approximate): 15
0052.811 (0) Table wphabit_wfScanners: Total rows added: 18 in 0.03 seconds
0052.815 (0) Table wphabit_wfScanners: finishing file (backup_2019-02-11-2255_Habit_aa19e35c7be7-db-table-wphabit_wfScanners.table.gz - 0.5 KB)
0052.877 (0) Table wphabit_wfStatus: Total expected rows (approximate): 949
0053.101 (0) Table wphabit_wfStatus: Total rows added: 949 in 0.17 seconds
0053.107 (0) Table wphabit_wfStatus: finishing file (backup_2019-02-11-2255_Habit_aa19e35c7be7-db-table-wphabit_wfStatus.table.gz - 17.4 KB)
0053.174 (0) Table wphabit_wfTrafficRates: Total expected rows (approximate): 0
0053.178 (0) Table wphabit_wfTrafficRates: Total rows added: 0 in 0.00 seconds
0053.179 (0) Table wphabit_wfTrafficRates: finishing file (backup_2019-02-11-2255_Habit_aa19e35c7be7-db-table-wphabit_wfTrafficRates.table.gz - 0.3 KB)
0053.238 (0) Table wphabit_wfVulnScanners: Total expected rows (approximate): 0
0053.249 (0) Table wphabit_wfVulnScanners: Total rows added: 0 in 0.01 seconds
0053.253 (0) Table wphabit_wfVulnScanners: finishing file (backup_2019-02-11-2255_Habit_aa19e35c7be7-db-table-wphabit_wfVulnScanners.table.gz - 0.3 KB)
0053.286 (0) Table wphabit_woocommerce_api_keys: Total expected rows (approximate): 0
0053.339 (0) Table wphabit_woocommerce_api_keys: Total rows added: 0 in 0.05 seconds
0053.341 (0) Table wphabit_woocommerce_api_keys: finishing file (backup_2019-02-11-2255_Habit_aa19e35c7be7-db-table-wphabit_woocommerce_api_keys.table.gz - 0.4 KB)
0053.532 (0) Table wphabit_woocommerce_attribute_taxonomies: Total expected rows (approximate): 7
0053.542 (0) Table wphabit_woocommerce_attribute_taxonomies: Total rows added: 7 in 0.01 seconds
0053.549 (0) Table wphabit_woocommerce_attribute_taxonomies: finishing file (backup_2019-02-11-2255_Habit_aa19e35c7be7-db-table-wphabit_woocommerce_attribute_taxonomies.table.gz - 0.5 KB)
0053.593 (0) Table wphabit_woocommerce_downloadable_product_permissions: Total expected rows (approximate): 0
0053.607 (0) Table wphabit_woocommerce_downloadable_product_permissions: Total rows added: 0 in 0.01 seconds
0053.610 (0) Table wphabit_woocommerce_downloadable_product_permissions: finishing file (backup_2019-02-11-2255_Habit_aa19e35c7be7-db-table-wphabit_woocommerce_downloadable_product_permissions.table.gz - 0.5 KB)
0053.638 (0) Table wphabit_woocommerce_log: Total expected rows (approximate): 0
0053.669 (0) Table wphabit_woocommerce_log: Total rows added: 0 in 0.02 seconds
0053.673 (0) Table wphabit_woocommerce_log: finishing file (backup_2019-02-11-2255_Habit_aa19e35c7be7-db-table-wphabit_woocommerce_log.table.gz - 0.4 KB)
0053.692 (0) Table wphabit_woocommerce_order_items: Total expected rows (approximate): 3887
0054.220 (0) Table wphabit_woocommerce_order_items: Total rows added: 5451 in 0.53 seconds
0054.222 (0) Table wphabit_woocommerce_order_items: finishing file (backup_2019-02-11-2255_Habit_aa19e35c7be7-db-table-wphabit_woocommerce_order_items.table.gz - 29.3 KB)
0054.276 (0) Table wphabit_woocommerce_payment_tokens: Total expected rows (approximate): 0
0054.284 (0) Table wphabit_woocommerce_payment_tokens: Total rows added: 0 in 0.01 seconds
0054.287 (0) Table wphabit_woocommerce_payment_tokens: finishing file (backup_2019-02-11-2255_Habit_aa19e35c7be7-db-table-wphabit_woocommerce_payment_tokens.table.gz - 0.4 KB)
0054.298 (0) Table wphabit_woocommerce_sessions: Total expected rows (approximate): 29
0054.334 (0) Table wphabit_woocommerce_sessions: Total rows added: 29 in 0.04 seconds
0054.338 (0) Table wphabit_woocommerce_sessions: finishing file (backup_2019-02-11-2255_Habit_aa19e35c7be7-db-table-wphabit_woocommerce_sessions.table.gz - 4.8 KB)
0054.459 (0) Table wphabit_woocommerce_shipping_zone_locations: Total expected rows (approximate): 82
0054.464 (0) Table wphabit_woocommerce_shipping_zone_locations: Total rows added: 83 in 0.00 seconds
0054.465 (0) Table wphabit_woocommerce_shipping_zone_locations: finishing file (backup_2019-02-11-2255_Habit_aa19e35c7be7-db-table-wphabit_woocommerce_shipping_zone_locations.table.gz - 0.9 KB)
0054.500 (0) Table wphabit_woocommerce_shipping_zone_methods: Total expected rows (approximate): 3
0054.506 (0) Table wphabit_woocommerce_shipping_zone_methods: Total rows added: 7 in 0.00 seconds
0054.509 (0) Table wphabit_woocommerce_shipping_zone_methods: finishing file (backup_2019-02-11-2255_Habit_aa19e35c7be7-db-table-wphabit_woocommerce_shipping_zone_methods.table.gz - 0.5 KB)
0054.546 (0) Table wphabit_woocommerce_shipping_zones: Total expected rows (approximate): 0
0054.553 (0) Table wphabit_woocommerce_shipping_zones: Total rows added: 3 in 0.00 seconds
0054.556 (0) Table wphabit_woocommerce_shipping_zones: finishing file (backup_2019-02-11-2255_Habit_aa19e35c7be7-db-table-wphabit_woocommerce_shipping_zones.table.gz - 0.4 KB)
0054.596 (0) Table wphabit_woocommerce_tax_rate_locations: Total expected rows (approximate): 0
0054.610 (0) Table wphabit_woocommerce_tax_rate_locations: Total rows added: 0 in 0.01 seconds
0054.613 (0) Table wphabit_woocommerce_tax_rate_locations: finishing file (backup_2019-02-11-2255_Habit_aa19e35c7be7-db-table-wphabit_woocommerce_tax_rate_locations.table.gz - 0.4 KB)
0054.623 (0) Table wphabit_woocommerce_tax_rates: Total expected rows (approximate): 0
0054.640 (0) Table wphabit_woocommerce_tax_rates: Total rows added: 0 in 0.02 seconds
0054.641 (0) Table wphabit_woocommerce_tax_rates: finishing file (backup_2019-02-11-2255_Habit_aa19e35c7be7-db-table-wphabit_woocommerce_tax_rates.table.gz - 0.4 KB)
0054.673 (0) Table wphabit_wusp_group_product_price_mapping: Total expected rows (approximate): 0
0054.692 (0) Table wphabit_wusp_group_product_price_mapping: Total rows added: 0 in 0.02 seconds
0054.696 (0) Table wphabit_wusp_group_product_price_mapping: finishing file (backup_2019-02-11-2255_Habit_aa19e35c7be7-db-table-wphabit_wusp_group_product_price_mapping.table.gz - 0.4 KB)
0054.800 (0) Table wphabit_wusp_role_pricing_mapping: Total expected rows (approximate): 0
0055.195 (0) Table wphabit_wusp_role_pricing_mapping: Total rows added: 0 in 0.39 seconds
0055.261 (0) Table wphabit_wusp_role_pricing_mapping: finishing file (backup_2019-02-11-2255_Habit_aa19e35c7be7-db-table-wphabit_wusp_role_pricing_mapping.table.gz - 0.4 KB)
0055.302 (0) Table wphabit_wusp_rules: Total expected rows (approximate): 0
0055.329 (0) Table wphabit_wusp_rules: Total rows added: 0 in 0.03 seconds
0055.331 (0) Table wphabit_wusp_rules: finishing file (backup_2019-02-11-2255_Habit_aa19e35c7be7-db-table-wphabit_wusp_rules.table.gz - 0.4 KB)
0055.357 (0) Table wphabit_wusp_subrules: Total expected rows (approximate): 0
0055.433 (0) Table wphabit_wusp_subrules: Total rows added: 0 in 0.07 seconds
0055.435 (0) Table wphabit_wusp_subrules: finishing file (backup_2019-02-11-2255_Habit_aa19e35c7be7-db-table-wphabit_wusp_subrules.table.gz - 0.4 KB)
0055.478 (0) Table wphabit_wusp_user_pricing_mapping: Total expected rows (approximate): 0
0055.491 (0) Table wphabit_wusp_user_pricing_mapping: Total rows added: 0 in 0.01 seconds
0055.493 (0) Table wphabit_wusp_user_pricing_mapping: finishing file (backup_2019-02-11-2255_Habit_aa19e35c7be7-db-table-wphabit_wusp_user_pricing_mapping.table.gz - 0.4 KB)
0055.518 (0) Table wphabit_yith_wcwl: Total expected rows (approximate): 0
0055.522 (0) Table wphabit_yith_wcwl: Total rows added: 11 in 0.00 seconds
0055.523 (0) Table wphabit_yith_wcwl: finishing file (backup_2019-02-11-2255_Habit_aa19e35c7be7-db-table-wphabit_yith_wcwl.table.gz - 0.6 KB)
0055.545 (0) Table wphabit_yith_wcwl_lists: Total expected rows (approximate): 47
0055.557 (0) Table wphabit_yith_wcwl_lists: Total rows added: 142 in 0.01 seconds
0055.559 (0) Table wphabit_yith_wcwl_lists: finishing file (backup_2019-02-11-2255_Habit_aa19e35c7be7-db-table-wphabit_yith_wcwl_lists.table.gz - 3.7 KB)
0055.601 (0) Table wphabit_zoo_cw_global_config: Total expected rows (approximate): 16
0055.618 (0) Table wphabit_zoo_cw_global_config: Total rows added: 16 in 0.02 seconds
0055.621 (0) Table wphabit_zoo_cw_global_config: finishing file (backup_2019-02-11-2255_Habit_aa19e35c7be7-db-table-wphabit_zoo_cw_global_config.table.gz - 0.6 KB)
0055.689 (0) Table wphabit_zoo_cw_product_attribute_swatch_type: Total expected rows (approximate): 7
0055.736 (0) Table wphabit_zoo_cw_product_attribute_swatch_type: Total rows added: 7 in 0.04 seconds
0055.739 (0) Table wphabit_zoo_cw_product_attribute_swatch_type: finishing file (backup_2019-02-11-2255_Habit_aa19e35c7be7-db-table-wphabit_zoo_cw_product_attribute_swatch_type.table.gz - 0.4 KB)
0055.770 (0) Table wphabit_zoo_ln_filter_config: Total expected rows (approximate): 0
0055.801 (0) Table wphabit_zoo_ln_filter_config: Total rows added: 0 in 0.03 seconds
0055.803 (0) Table wphabit_zoo_ln_filter_config: finishing file (backup_2019-02-11-2255_Habit_aa19e35c7be7-db-table-wphabit_zoo_ln_filter_config.table.gz - 0.4 KB)
0055.816 (0) Table wphabit_zoo_ln_filter_list: Total expected rows (approximate): 0
0055.821 (0) Table wphabit_zoo_ln_filter_list: Total rows added: 0 in 0.00 seconds
0055.822 (0) Table wphabit_zoo_ln_filter_list: finishing file (backup_2019-02-11-2255_Habit_aa19e35c7be7-db-table-wphabit_zoo_ln_filter_list.table.gz - 0.3 KB)
0055.901 (0) Table wphabit_zoo_ln_global_config: Total expected rows (approximate): 0
0055.955 (0) Table wphabit_zoo_ln_global_config: Total rows added: 0 in 0.05 seconds
0055.960 (0) Table wphabit_zoo_ln_global_config: finishing file (backup_2019-02-11-2255_Habit_aa19e35c7be7-db-table-wphabit_zoo_ln_global_config.table.gz - 0.3 KB)
0055.969 (0) backup_2019-02-11-2255_Habit_aa19e35c7be7-db-table-wphabit_options.table.gz (1/91): adding to final database dump
0056.155 (0) backup_2019-02-11-2255_Habit_aa19e35c7be7-db-table-wphabit_users.table.gz (2/91): adding to final database dump
0056.160 (0) backup_2019-02-11-2255_Habit_aa19e35c7be7-db-table-wphabit_usermeta.table.gz (3/91): adding to final database dump
0056.246 (0) backup_2019-02-11-2255_Habit_aa19e35c7be7-db-table-wphabit_commentmeta.table.gz (4/91): adding to final database dump
0056.249 (0) backup_2019-02-11-2255_Habit_aa19e35c7be7-db-table-wphabit_comments.table.gz (5/91): adding to final database dump
0056.288 (0) backup_2019-02-11-2255_Habit_aa19e35c7be7-db-table-wphabit_links.table.gz (6/91): adding to final database dump
0056.290 (0) backup_2019-02-11-2255_Habit_aa19e35c7be7-db-table-wphabit_postmeta.table.gz (7/91): adding to final database dump
0056.585 (0) backup_2019-02-11-2255_Habit_aa19e35c7be7-db-table-wphabit_posts.table.gz (8/91): adding to final database dump
0056.647 (0) backup_2019-02-11-2255_Habit_aa19e35c7be7-db-table-wphabit_term_relationships.table.gz (9/91): adding to final database dump
0056.649 (0) backup_2019-02-11-2255_Habit_aa19e35c7be7-db-table-wphabit_term_taxonomy.table.gz (10/91): adding to final database dump
0056.653 (0) backup_2019-02-11-2255_Habit_aa19e35c7be7-db-table-wphabit_termmeta.table.gz (11/91): adding to final database dump
0056.656 (0) backup_2019-02-11-2255_Habit_aa19e35c7be7-db-table-wphabit_terms.table.gz (12/91): adding to final database dump
0056.658 (0) backup_2019-02-11-2255_Habit_aa19e35c7be7-db-table-wphabit_woocommerce_order_itemmeta.table.gz (13/91): adding to final database dump
0056.793 (0) backup_2019-02-11-2255_Habit_aa19e35c7be7-db-table-wphabit_woocommerce_payment_tokenmeta.table.gz (14/91): adding to final database dump
0056.796 (0) backup_2019-02-11-2255_Habit_aa19e35c7be7-db-table-wphabit_yoast_seo_links.table.gz (15/91): adding to final database dump
0056.797 (0) backup_2019-02-11-2255_Habit_aa19e35c7be7-db-table-wphabit_yoast_seo_meta.table.gz (16/91): adding to final database dump
0056.800 (0) backup_2019-02-11-2255_Habit_aa19e35c7be7-db-table-wphabit_newsletter.table.gz (17/91): adding to final database dump
0056.802 (0) backup_2019-02-11-2255_Habit_aa19e35c7be7-db-table-wphabit_newsletter_emails.table.gz (18/91): adding to final database dump
0056.804 (0) backup_2019-02-11-2255_Habit_aa19e35c7be7-db-table-wphabit_newsletter_sent.table.gz (19/91): adding to final database dump
0056.805 (0) backup_2019-02-11-2255_Habit_aa19e35c7be7-db-table-wphabit_newsletter_stats.table.gz (20/91): adding to final database dump
0056.807 (0) backup_2019-02-11-2255_Habit_aa19e35c7be7-db-table-wphabit_newsletter_user_logs.table.gz (21/91): adding to final database dump
0056.809 (0) backup_2019-02-11-2255_Habit_aa19e35c7be7-db-table-wphabit_revslider_css.table.gz (22/91): adding to final database dump
0056.815 (0) backup_2019-02-11-2255_Habit_aa19e35c7be7-db-table-wphabit_revslider_layer_animations.table.gz (23/91): adding to final database dump
0056.816 (0) backup_2019-02-11-2255_Habit_aa19e35c7be7-db-table-wphabit_revslider_navigations.table.gz (24/91): adding to final database dump
0056.817 (0) backup_2019-02-11-2255_Habit_aa19e35c7be7-db-table-wphabit_revslider_sliders.table.gz (25/91): adding to final database dump
0056.819 (0) backup_2019-02-11-2255_Habit_aa19e35c7be7-db-table-wphabit_revslider_slides.table.gz (26/91): adding to final database dump
0056.824 (0) backup_2019-02-11-2255_Habit_aa19e35c7be7-db-table-wphabit_revslider_static_slides.table.gz (27/91): adding to final database dump
0056.829 (0) backup_2019-02-11-2255_Habit_aa19e35c7be7-db-table-wphabit_smush_dir_images.table.gz (28/91): adding to final database dump
0056.831 (0) backup_2019-02-11-2255_Habit_aa19e35c7be7-db-table-wphabit_vtprd_purchase_log.table.gz (29/91): adding to final database dump
0056.832 (0) backup_2019-02-11-2255_Habit_aa19e35c7be7-db-table-wphabit_vtprd_purchase_log_product.table.gz (30/91): adding to final database dump
0056.833 (0) backup_2019-02-11-2255_Habit_aa19e35c7be7-db-table-wphabit_vtprd_purchase_log_product_rule.table.gz (31/91): adding to final database dump
0056.925 (0) backup_2019-02-11-2255_Habit_aa19e35c7be7-db-table-wphabit_wc_download_log.table.gz (32/91): adding to final database dump
0056.926 (0) backup_2019-02-11-2255_Habit_aa19e35c7be7-db-table-wphabit_wc_webhooks.table.gz (33/91): adding to final database dump
0056.927 (0) backup_2019-02-11-2255_Habit_aa19e35c7be7-db-table-wphabit_wcmp_cust_answers.table.gz (34/91): adding to final database dump
0056.928 (0) backup_2019-02-11-2255_Habit_aa19e35c7be7-db-table-wphabit_wcmp_cust_questions.table.gz (35/91): adding to final database dump
0056.929 (0) backup_2019-02-11-2255_Habit_aa19e35c7be7-db-table-wphabit_wcmp_products_map.table.gz (36/91): adding to final database dump
0056.931 (0) backup_2019-02-11-2255_Habit_aa19e35c7be7-db-table-wphabit_wcmp_shipping_zone_locations.table.gz (37/91): adding to final database dump
0056.934 (0) backup_2019-02-11-2255_Habit_aa19e35c7be7-db-table-wphabit_wcmp_shipping_zone_methods.table.gz (38/91): adding to final database dump
0056.935 (0) backup_2019-02-11-2255_Habit_aa19e35c7be7-db-table-wphabit_wcmp_vendor_orders.table.gz (39/91): adding to final database dump
0056.937 (0) backup_2019-02-11-2255_Habit_aa19e35c7be7-db-table-wphabit_wcmp_visitors_stats.table.gz (40/91): adding to final database dump
0056.939 (0) backup_2019-02-11-2255_Habit_aa19e35c7be7-db-table-wphabit_wcsp_group_category_pricing_mapping.table.gz (41/91): adding to final database dump
0056.940 (0) backup_2019-02-11-2255_Habit_aa19e35c7be7-db-table-wphabit_wcsp_role_category_pricing_mapping.table.gz (42/91): adding to final database dump
0056.942 (0) backup_2019-02-11-2255_Habit_aa19e35c7be7-db-table-wphabit_wcsp_user_category_pricing_mapping.table.gz (43/91): adding to final database dump
0056.943 (0) backup_2019-02-11-2255_Habit_aa19e35c7be7-db-table-wphabit_wfBadLeechers.table.gz (44/91): adding to final database dump
0056.944 (0) backup_2019-02-11-2255_Habit_aa19e35c7be7-db-table-wphabit_wfBlockedCommentLog.table.gz (45/91): adding to final database dump
0056.946 (0) backup_2019-02-11-2255_Habit_aa19e35c7be7-db-table-wphabit_wfBlockedIPLog.table.gz (46/91): adding to final database dump
0056.948 (0) backup_2019-02-11-2255_Habit_aa19e35c7be7-db-table-wphabit_wfBlocks7.table.gz (47/91): adding to final database dump
0056.951 (0) backup_2019-02-11-2255_Habit_aa19e35c7be7-db-table-wphabit_wfConfig.table.gz (48/91): adding to final database dump
0056.981 (0) backup_2019-02-11-2255_Habit_aa19e35c7be7-db-table-wphabit_wfCrawlers.table.gz (49/91): adding to final database dump
0056.983 (0) backup_2019-02-11-2255_Habit_aa19e35c7be7-db-table-wphabit_wfFileChanges.table.gz (50/91): adding to final database dump
0056.984 (0) backup_2019-02-11-2255_Habit_aa19e35c7be7-db-table-wphabit_wfFileMods.table.gz (51/91): adding to final database dump
0057.149 (0) backup_2019-02-11-2255_Habit_aa19e35c7be7-db-table-wphabit_wfHits.table.gz (52/91): adding to final database dump
0057.173 (0) backup_2019-02-11-2255_Habit_aa19e35c7be7-db-table-wphabit_wfHoover.table.gz (53/91): adding to final database dump
0057.175 (0) backup_2019-02-11-2255_Habit_aa19e35c7be7-db-table-wphabit_wfIssues.table.gz (54/91): adding to final database dump
0057.177 (0) backup_2019-02-11-2255_Habit_aa19e35c7be7-db-table-wphabit_wfKnownFileList.table.gz (55/91): adding to final database dump
0057.229 (0) backup_2019-02-11-2255_Habit_aa19e35c7be7-db-table-wphabit_wfLeechers.table.gz (56/91): adding to final database dump
0057.232 (0) backup_2019-02-11-2255_Habit_aa19e35c7be7-db-table-wphabit_wfLiveTrafficHuman.table.gz (57/91): adding to final database dump
0057.240 (0) backup_2019-02-11-2255_Habit_aa19e35c7be7-db-table-wphabit_wfLocs.table.gz (58/91): adding to final database dump
0057.244 (0) backup_2019-02-11-2255_Habit_aa19e35c7be7-db-table-wphabit_wfLogins.table.gz (59/91): adding to final database dump
0057.252 (0) backup_2019-02-11-2255_Habit_aa19e35c7be7-db-table-wphabit_wfNotifications.table.gz (60/91): adding to final database dump
0057.254 (0) backup_2019-02-11-2255_Habit_aa19e35c7be7-db-table-wphabit_wfPendingIssues.table.gz (61/91): adding to final database dump
0057.255 (0) backup_2019-02-11-2255_Habit_aa19e35c7be7-db-table-wphabit_wfReverseCache.table.gz (62/91): adding to final database dump
0057.256 (0) backup_2019-02-11-2255_Habit_aa19e35c7be7-db-table-wphabit_wfSNIPCache.table.gz (63/91): adding to final database dump
0057.258 (0) backup_2019-02-11-2255_Habit_aa19e35c7be7-db-table-wphabit_wfScanners.table.gz (64/91): adding to final database dump
0057.260 (0) backup_2019-02-11-2255_Habit_aa19e35c7be7-db-table-wphabit_wfStatus.table.gz (65/91): adding to final database dump
0057.266 (0) backup_2019-02-11-2255_Habit_aa19e35c7be7-db-table-wphabit_wfTrafficRates.table.gz (66/91): adding to final database dump
0057.270 (0) backup_2019-02-11-2255_Habit_aa19e35c7be7-db-table-wphabit_wfVulnScanners.table.gz (67/91): adding to final database dump
0057.271 (0) backup_2019-02-11-2255_Habit_aa19e35c7be7-db-table-wphabit_woocommerce_api_keys.table.gz (68/91): adding to final database dump
0057.272 (0) backup_2019-02-11-2255_Habit_aa19e35c7be7-db-table-wphabit_woocommerce_attribute_taxonomies.table.gz (69/91): adding to final database dump
0057.273 (0) backup_2019-02-11-2255_Habit_aa19e35c7be7-db-table-wphabit_woocommerce_downloadable_product_permissions.table.gz (70/91): adding to final database dump
0057.285 (0) backup_2019-02-11-2255_Habit_aa19e35c7be7-db-table-wphabit_woocommerce_log.table.gz (71/91): adding to final database dump
0057.292 (0) backup_2019-02-11-2255_Habit_aa19e35c7be7-db-table-wphabit_woocommerce_order_items.table.gz (72/91): adding to final database dump
0057.320 (0) backup_2019-02-11-2255_Habit_aa19e35c7be7-db-table-wphabit_woocommerce_payment_tokens.table.gz (73/91): adding to final database dump
0057.323 (0) backup_2019-02-11-2255_Habit_aa19e35c7be7-db-table-wphabit_woocommerce_sessions.table.gz (74/91): adding to final database dump
0057.333 (0) backup_2019-02-11-2255_Habit_aa19e35c7be7-db-table-wphabit_woocommerce_shipping_zone_locations.table.gz (75/91): adding to final database dump
0057.334 (0) backup_2019-02-11-2255_Habit_aa19e35c7be7-db-table-wphabit_woocommerce_shipping_zone_methods.table.gz (76/91): adding to final database dump
0057.337 (0) backup_2019-02-11-2255_Habit_aa19e35c7be7-db-table-wphabit_woocommerce_shipping_zones.table.gz (77/91): adding to final database dump
0057.338 (0) backup_2019-02-11-2255_Habit_aa19e35c7be7-db-table-wphabit_woocommerce_tax_rate_locations.table.gz (78/91): adding to final database dump
0057.339 (0) backup_2019-02-11-2255_Habit_aa19e35c7be7-db-table-wphabit_woocommerce_tax_rates.table.gz (79/91): adding to final database dump
0057.341 (0) backup_2019-02-11-2255_Habit_aa19e35c7be7-db-table-wphabit_wusp_group_product_price_mapping.table.gz (80/91): adding to final database dump
0057.351 (0) backup_2019-02-11-2255_Habit_aa19e35c7be7-db-table-wphabit_wusp_role_pricing_mapping.table.gz (81/91): adding to final database dump
0057.353 (0) backup_2019-02-11-2255_Habit_aa19e35c7be7-db-table-wphabit_wusp_rules.table.gz (82/91): adding to final database dump
0057.357 (0) backup_2019-02-11-2255_Habit_aa19e35c7be7-db-table-wphabit_wusp_subrules.table.gz (83/91): adding to final database dump
0057.361 (0) backup_2019-02-11-2255_Habit_aa19e35c7be7-db-table-wphabit_wusp_user_pricing_mapping.table.gz (84/91): adding to final database dump
0057.364 (0) backup_2019-02-11-2255_Habit_aa19e35c7be7-db-table-wphabit_yith_wcwl.table.gz (85/91): adding to final database dump
0057.374 (0) backup_2019-02-11-2255_Habit_aa19e35c7be7-db-table-wphabit_yith_wcwl_lists.table.gz (86/91): adding to final database dump
0057.377 (0) backup_2019-02-11-2255_Habit_aa19e35c7be7-db-table-wphabit_zoo_cw_global_config.table.gz (87/91): adding to final database dump
0057.380 (0) backup_2019-02-11-2255_Habit_aa19e35c7be7-db-table-wphabit_zoo_cw_product_attribute_swatch_type.table.gz (88/91): adding to final database dump
0057.381 (0) backup_2019-02-11-2255_Habit_aa19e35c7be7-db-table-wphabit_zoo_ln_filter_config.table.gz (89/91): adding to final database dump
0057.382 (0) backup_2019-02-11-2255_Habit_aa19e35c7be7-db-table-wphabit_zoo_ln_filter_list.table.gz (90/91): adding to final database dump
0057.383 (0) backup_2019-02-11-2255_Habit_aa19e35c7be7-db-table-wphabit_zoo_ln_global_config.table.gz (91/91): adding to final database dump
0057.385 (0) backup_2019-02-11-2255_Habit_aa19e35c7be7-db.gz: finished writing out complete database file (3864 KB)
0057.494 (0) Total database tables backed up: 91 (backup_2019-02-11-2255_Habit_aa19e35c7be7-db.gz, size: 3964957, sha256)
0057.522 (0) backup_2019-02-11-2255_Habit_aa19e35c7be7-plugins.zip: plugins: This file has not yet been successfully uploaded: will queue
0057.523 (0) backup_2019-02-11-2255_Habit_aa19e35c7be7-themes.zip: themes: This file has not yet been successfully uploaded: will queue
0057.524 (0) backup_2019-02-11-2255_Habit_aa19e35c7be7-uploads.zip: uploads: This file has not yet been successfully uploaded: will queue
0057.525 (0) backup_2019-02-11-2255_Habit_aa19e35c7be7-others.zip: others: This file has not yet been successfully uploaded: will queue
0057.541 (0) backup_2019-02-11-2255_Habit_aa19e35c7be7-db.gz: db: This file has not yet been successfully uploaded: will queue
0057.542 (0) Saving backup history. Total backup size: 294.1 MB
0057.559 (0) Requesting upload of the files that have not yet been successfully uploaded (5)
0057.563 (0) Cloud backup selection (1/1): none with instance (1/1) (last)
0057.564 (0) No remote despatch: user chose no remote backup service
0057.565 (0) Recording as successfully uploaded: backup_2019-02-11-2255_Habit_aa19e35c7be7-plugins.zip
0057.567 (0) Recording as successfully uploaded: backup_2019-02-11-2255_Habit_aa19e35c7be7-themes.zip
0057.571 (0) Recording as successfully uploaded: backup_2019-02-11-2255_Habit_aa19e35c7be7-uploads.zip
0057.574 (0) Recording as successfully uploaded: backup_2019-02-11-2255_Habit_aa19e35c7be7-others.zip
0057.577 (0) Recording as successfully uploaded: backup_2019-02-11-2255_Habit_aa19e35c7be7-db.gz
0057.582 (0) Retain: beginning examination of existing backup sets; user setting: retain_files=2, retain_db=2
0057.583 (0) Number of backup sets in history: 2; groups (db): 1
0057.584 (0) Examining (for databases) backup set with group_id=0, nonce=aa19e35c7be7, datestamp=1549896946 (Feb 11 2019 14:55:46)
0057.585 (0) This backup set is the backup set just made, so will not be deleted.
0057.585 (0) Examining (for databases) backup set with group_id=0, nonce=60e52b9a8a94, datestamp=1533576558 (Aug 06 2018 17:29:18)
0057.585 (0) This backup set (1533576558) was an 'Always Keep' backup, and we have not yet reached any retain limits, so it should be counted in the count of how many have been retained for purposes of the 'how many to retain' count. It will not be pruned. Skipping.
0057.585 (0) Number of backup sets in history: 2; groups (files): 1
0057.586 (0) Examining (for files) backup set with nonce=aa19e35c7be7, datestamp=1549896946 (Feb 11 2019 14:55:46)
0057.586 (0) This backup set is the backup set just made, so will not be deleted.
0057.586 (0) This backup set is the backup set just made, so will not be deleted.
0057.587 (0) This backup set is the backup set just made, so will not be deleted.
0057.587 (0) This backup set is the backup set just made, so will not be deleted.
0057.587 (0) This backup set remains non-empty (f=1/d=1); will retain in history
0057.588 (0) Examining (for files) backup set with nonce=60e52b9a8a94, datestamp=1533576558 (Aug 06 2018 17:29:18)
0057.588 (0) This backup set (1533576558) was an 'Always Keep' backup, and we have not yet reached any retain limits, so it should be counted in the count of how many have been retained for purposes of the 'how many to retain' count. It will not be pruned. Skipping.
0057.588 (0) This backup set (1533576558) was an 'Always Keep' backup, and we have not yet reached any retain limits, so it should be counted in the count of how many have been retained for purposes of the 'how many to retain' count. It will not be pruned. Skipping.
0057.588 (0) This backup set (1533576558) was an 'Always Keep' backup, and we have not yet reached any retain limits, so it should be counted in the count of how many have been retained for purposes of the 'how many to retain' count. It will not be pruned. Skipping.
0057.588 (0) This backup set (1533576558) was an 'Always Keep' backup, and we have not yet reached any retain limits, so it should be counted in the count of how many have been retained for purposes of the 'how many to retain' count. It will not be pruned. Skipping.
0057.588 (0) This backup set remains non-empty (f=1/d=1); will retain in history
0057.588 (0) Retain: saving new backup history (sets now: 2) and finishing retain operation
0057.591 (0) Resume backup (aa19e35c7be7, 0): finish run
0057.594 (0) Decremented the semaphore (fd) by 1
0057.596 (0) Semaphore (fd) unlocked
0057.597 (0) There were no errors in the uploads, so the 'resume' event (1) is being unscheduled
0057.607 (0) No email will/can be sent - the user has not configured an email address.
0057.609 (0) The backup apparently succeeded and is now complete
